EESchema Schematic File Version 4
EELAYER 30 0
EELAYER END
$Descr A3 16535 11693
encoding utf-8
Sheet 3 8
Title "AXSDR: COSMIC_RF"
Date "2019-08-15"
Rev "Mk. 1"
Comp "ASTREX Space Lab"
Comment1 "By Lync"
Comment2 ""
Comment3 ""
Comment4 "49394D 6554 576552 57495448 47546556495459 "
$EndDescr
$Comp
L power:GNDA #PWR?
U 1 1 5DD95CFA
P 5800 7600
AR Path="/5DA5334A/5DD95CFA" Ref="#PWR?"  Part="1" 
AR Path="/5DA53393/5DD95CFA" Ref="#PWR0101"  Part="1" 
F 0 "#PWR0101" H 5800 7350 50  0001 C CNN
F 1 "GNDA" H 5805 7427 50  0000 C CNN
F 2 "" H 5800 7600 50  0001 C CNN
F 3 "" H 5800 7600 50  0001 C CNN
	1    5800 7600
	1    0    0    -1  
$EndComp
$Comp
L power:GNDA #PWR?
U 1 1 5DD95D00
P 9200 7600
AR Path="/5DA5334A/5DD95D00" Ref="#PWR?"  Part="1" 
AR Path="/5DA53393/5DD95D00" Ref="#PWR0102"  Part="1" 
F 0 "#PWR0102" H 9200 7350 50  0001 C CNN
F 1 "GNDA" H 9205 7427 50  0000 C CNN
F 2 "" H 9200 7600 50  0001 C CNN
F 3 "" H 9200 7600 50  0001 C CNN
	1    9200 7600
	1    0    0    -1  
$EndComp
Wire Wire Line
	6000 4850 5800 4850
Wire Wire Line
	5800 4850 5800 4950
Wire Wire Line
	6000 4950 5800 4950
Connection ~ 5800 4950
Wire Wire Line
	5800 4950 5800 5050
Wire Wire Line
	6000 5050 5800 5050
Connection ~ 5800 5050
Wire Wire Line
	5800 5050 5800 5150
Wire Wire Line
	6000 5150 5800 5150
Connection ~ 5800 5150
Wire Wire Line
	5800 5150 5800 5250
Wire Wire Line
	6000 5250 5800 5250
Connection ~ 5800 5250
Wire Wire Line
	5800 5250 5800 5350
Wire Wire Line
	6000 5350 5800 5350
Connection ~ 5800 5350
Wire Wire Line
	5800 5350 5800 5450
Wire Wire Line
	6000 5450 5800 5450
Connection ~ 5800 5450
Wire Wire Line
	5800 5450 5800 5550
Wire Wire Line
	6000 5550 5800 5550
Connection ~ 5800 5550
Wire Wire Line
	5800 5550 5800 5650
Wire Wire Line
	6000 5650 5800 5650
Connection ~ 5800 5650
Wire Wire Line
	5800 5650 5800 5750
Wire Wire Line
	6000 5750 5800 5750
Connection ~ 5800 5750
Wire Wire Line
	5800 5750 5800 5850
Wire Wire Line
	6000 5850 5800 5850
Connection ~ 5800 5850
Wire Wire Line
	5800 5850 5800 5950
Wire Wire Line
	6000 5950 5800 5950
Connection ~ 5800 5950
Wire Wire Line
	5800 5950 5800 6050
Wire Wire Line
	6000 6050 5800 6050
Connection ~ 5800 6050
Wire Wire Line
	5800 6050 5800 6150
Wire Wire Line
	6000 6150 5800 6150
Connection ~ 5800 6150
Wire Wire Line
	5800 6150 5800 6250
Wire Wire Line
	6000 6250 5800 6250
Connection ~ 5800 6250
Wire Wire Line
	5800 6250 5800 6350
Wire Wire Line
	6000 6350 5800 6350
Connection ~ 5800 6350
Wire Wire Line
	5800 6350 5800 6450
Wire Wire Line
	6000 6450 5800 6450
Connection ~ 5800 6450
Wire Wire Line
	5800 6450 5800 6550
Wire Wire Line
	6000 6550 5800 6550
Connection ~ 5800 6550
Wire Wire Line
	5800 6550 5800 6650
Wire Wire Line
	6000 6650 5800 6650
Connection ~ 5800 6650
Wire Wire Line
	5800 6650 5800 6750
Wire Wire Line
	6000 6750 5800 6750
Connection ~ 5800 6750
Wire Wire Line
	5800 6750 5800 6850
Wire Wire Line
	6000 6850 5800 6850
Connection ~ 5800 6850
Wire Wire Line
	5800 6850 5800 6950
Wire Wire Line
	6000 6950 5800 6950
Connection ~ 5800 6950
Wire Wire Line
	5800 6950 5800 7050
Wire Wire Line
	6000 7050 5800 7050
Connection ~ 5800 7050
Wire Wire Line
	5800 7050 5800 7150
Wire Wire Line
	6000 7150 5800 7150
Connection ~ 5800 7150
Wire Wire Line
	5800 7150 5800 7250
Wire Wire Line
	6000 7250 5800 7250
Connection ~ 5800 7250
Wire Wire Line
	5800 7250 5800 7600
Wire Wire Line
	9000 2050 9200 2050
Wire Wire Line
	9200 2050 9200 2150
Wire Wire Line
	9000 7250 9200 7250
Connection ~ 9200 7250
Wire Wire Line
	9200 7250 9200 7600
Wire Wire Line
	9000 7150 9200 7150
Connection ~ 9200 7150
Wire Wire Line
	9200 7150 9200 7250
Wire Wire Line
	9000 7050 9200 7050
Connection ~ 9200 7050
Wire Wire Line
	9200 7050 9200 7150
Wire Wire Line
	9000 6950 9200 6950
Connection ~ 9200 6950
Wire Wire Line
	9200 6950 9200 7050
Wire Wire Line
	9000 6850 9200 6850
Connection ~ 9200 6850
Wire Wire Line
	9200 6850 9200 6950
Wire Wire Line
	9000 5650 9200 5650
Connection ~ 9200 5650
Wire Wire Line
	9200 5650 9200 5750
Wire Wire Line
	9000 5750 9200 5750
Connection ~ 9200 5750
Wire Wire Line
	9200 5750 9200 5850
Wire Wire Line
	9000 5850 9200 5850
Connection ~ 9200 5850
Wire Wire Line
	9200 5850 9200 5950
Wire Wire Line
	9000 5950 9200 5950
Connection ~ 9200 5950
Wire Wire Line
	9200 5950 9200 6050
Wire Wire Line
	9000 6050 9200 6050
Connection ~ 9200 6050
Wire Wire Line
	9200 6050 9200 6150
Wire Wire Line
	9000 6150 9200 6150
Connection ~ 9200 6150
Wire Wire Line
	9200 6150 9200 6250
Wire Wire Line
	9000 6250 9200 6250
Connection ~ 9200 6250
Wire Wire Line
	9200 6250 9200 6350
Wire Wire Line
	9000 6350 9200 6350
Connection ~ 9200 6350
Wire Wire Line
	9200 6350 9200 6450
Wire Wire Line
	9000 6450 9200 6450
Connection ~ 9200 6450
Wire Wire Line
	9200 6450 9200 6550
Wire Wire Line
	9000 6550 9200 6550
Connection ~ 9200 6550
Wire Wire Line
	9200 6550 9200 6650
Wire Wire Line
	9000 6650 9200 6650
Connection ~ 9200 6650
Wire Wire Line
	9200 6650 9200 6750
Wire Wire Line
	9000 6750 9200 6750
Connection ~ 9200 6750
Wire Wire Line
	9200 6750 9200 6850
Wire Wire Line
	9000 5550 9200 5550
Connection ~ 9200 5550
Wire Wire Line
	9200 5550 9200 5650
Wire Wire Line
	9000 5450 9200 5450
Connection ~ 9200 5450
Wire Wire Line
	9200 5450 9200 5550
Wire Wire Line
	9000 5350 9200 5350
Connection ~ 9200 5350
Wire Wire Line
	9200 5350 9200 5450
Wire Wire Line
	9000 5250 9200 5250
Connection ~ 9200 5250
Wire Wire Line
	9200 5250 9200 5350
Wire Wire Line
	9000 5150 9200 5150
Connection ~ 9200 5150
Wire Wire Line
	9200 5150 9200 5250
Wire Wire Line
	9000 5050 9200 5050
Connection ~ 9200 5050
Wire Wire Line
	9200 5050 9200 5150
Wire Wire Line
	9000 4950 9200 4950
Connection ~ 9200 4950
Wire Wire Line
	9200 4950 9200 5050
Wire Wire Line
	9000 4850 9200 4850
Connection ~ 9200 4850
Wire Wire Line
	9200 4850 9200 4950
Wire Wire Line
	9000 4750 9200 4750
Connection ~ 9200 4750
Wire Wire Line
	9200 4750 9200 4850
Wire Wire Line
	9000 4650 9200 4650
Connection ~ 9200 4650
Wire Wire Line
	9200 4650 9200 4750
Wire Wire Line
	9000 4550 9200 4550
Connection ~ 9200 4550
Wire Wire Line
	9200 4550 9200 4650
Wire Wire Line
	9000 4450 9200 4450
Connection ~ 9200 4450
Wire Wire Line
	9200 4450 9200 4550
Wire Wire Line
	9000 4350 9200 4350
Connection ~ 9200 4350
Wire Wire Line
	9200 4350 9200 4450
Wire Wire Line
	9000 4250 9200 4250
Connection ~ 9200 4250
Wire Wire Line
	9200 4250 9200 4350
Wire Wire Line
	9000 4150 9200 4150
Connection ~ 9200 4150
Wire Wire Line
	9200 4150 9200 4250
Wire Wire Line
	9000 4050 9200 4050
Connection ~ 9200 4050
Wire Wire Line
	9200 4050 9200 4150
Wire Wire Line
	9000 3950 9200 3950
Connection ~ 9200 3950
Wire Wire Line
	9200 3950 9200 4050
Wire Wire Line
	9000 3850 9200 3850
Connection ~ 9200 3850
Wire Wire Line
	9200 3850 9200 3950
Wire Wire Line
	9000 3750 9200 3750
Connection ~ 9200 3750
Wire Wire Line
	9200 3750 9200 3850
Wire Wire Line
	9000 3650 9200 3650
Connection ~ 9200 3650
Wire Wire Line
	9200 3650 9200 3750
Wire Wire Line
	9000 3550 9200 3550
Connection ~ 9200 3550
Wire Wire Line
	9200 3550 9200 3650
Wire Wire Line
	9000 3450 9200 3450
Connection ~ 9200 3450
Wire Wire Line
	9200 3450 9200 3550
Wire Wire Line
	9000 3350 9200 3350
Connection ~ 9200 3350
Wire Wire Line
	9200 3350 9200 3450
Wire Wire Line
	9000 3250 9200 3250
Connection ~ 9200 3250
Wire Wire Line
	9200 3250 9200 3350
Wire Wire Line
	9000 3150 9200 3150
Connection ~ 9200 3150
Wire Wire Line
	9200 3150 9200 3250
Wire Wire Line
	9000 3050 9200 3050
Connection ~ 9200 3050
Wire Wire Line
	9200 3050 9200 3150
Wire Wire Line
	9000 2950 9200 2950
Connection ~ 9200 2950
Wire Wire Line
	9200 2950 9200 3050
Wire Wire Line
	9000 2850 9200 2850
Connection ~ 9200 2850
Wire Wire Line
	9200 2850 9200 2950
Wire Wire Line
	9000 2750 9200 2750
Connection ~ 9200 2750
Wire Wire Line
	9200 2750 9200 2850
Wire Wire Line
	9000 2650 9200 2650
Connection ~ 9200 2650
Wire Wire Line
	9200 2650 9200 2750
Wire Wire Line
	9000 2550 9200 2550
Connection ~ 9200 2550
Wire Wire Line
	9200 2550 9200 2650
Wire Wire Line
	9000 2450 9200 2450
Connection ~ 9200 2450
Wire Wire Line
	9200 2450 9200 2550
Wire Wire Line
	9000 2350 9200 2350
Connection ~ 9200 2350
Wire Wire Line
	9200 2350 9200 2450
Wire Wire Line
	9000 2250 9200 2250
Connection ~ 9200 2250
Wire Wire Line
	9200 2250 9200 2350
Wire Wire Line
	9000 2150 9200 2150
Connection ~ 9200 2150
Wire Wire Line
	9200 2150 9200 2250
Wire Wire Line
	6000 4550 5800 4550
Wire Wire Line
	5800 4550 5800 4650
Connection ~ 5800 4850
Wire Wire Line
	6000 4650 5800 4650
Connection ~ 5800 4650
Wire Wire Line
	5800 4650 5800 4850
Text GLabel 6000 2050 0    50   Input ~ 0
VDD_INTERFACE
Text GLabel 6000 2150 0    50   Output ~ 0
VDDA_3P3
$Comp
L Device:C C?
U 1 1 5DD95DF6
P 4800 2500
AR Path="/5DA5334A/5DD95DF6" Ref="C?"  Part="1" 
AR Path="/5DA53393/5DD95DF6" Ref="C1"  Part="1" 
F 0 "C1" H 4915 2546 50  0000 L CNN
F 1 "1uF" H 4915 2455 50  0000 L CNN
F 2 "" H 4838 2350 50  0001 C CNN
F 3 "~" H 4800 2500 50  0001 C CNN
	1    4800 2500
	1    0    0    -1  
$EndComp
$Comp
L power:GNDA #PWR?
U 1 1 5DD95DFC
P 4800 2750
AR Path="/5DA5334A/5DD95DFC" Ref="#PWR?"  Part="1" 
AR Path="/5DA53393/5DD95DFC" Ref="#PWR0103"  Part="1" 
F 0 "#PWR0103" H 4800 2500 50  0001 C CNN
F 1 "GNDA" H 4805 2577 50  0000 C CNN
F 2 "" H 4800 2750 50  0001 C CNN
F 3 "" H 4800 2750 50  0001 C CNN
	1    4800 2750
	1    0    0    -1  
$EndComp
Wire Wire Line
	4800 2250 4800 2350
Wire Wire Line
	4800 2650 4800 2750
Wire Wire Line
	6000 2350 5800 2350
Wire Wire Line
	5800 2350 5800 2250
Connection ~ 5800 2250
Wire Wire Line
	5800 2250 6000 2250
Wire Wire Line
	6000 2450 5750 2450
Wire Wire Line
	5750 2450 5750 2250
Connection ~ 5750 2250
Wire Wire Line
	5750 2250 5800 2250
Text GLabel 6000 2550 0    50   Input ~ 0
VDDA1P3_AUX_SYNTH
Text GLabel 6000 2650 0    50   Input ~ 0
VDDS1P3_AUX_VCO_LDO
Text GLabel 6000 2750 0    50   Input ~ 0
VDDA1P3_BB
Text GLabel 6000 2850 0    50   Input ~ 0
VDDA1P3_CLOCK_SYNTH
Text GLabel 6000 2950 0    50   Input ~ 0
VDDA1P3_CLOCK_VCO_LDO
Text GLabel 5600 3950 0    50   Input ~ 0
VDDA1P3_SER
Text GLabel 6000 3150 0    50   Input ~ 0
VDDA1P3_DES
Text GLabel 6000 3250 0    50   Input ~ 0
VDDA1P3_RF_LO
Wire Wire Line
	4800 2250 5750 2250
$Comp
L ADRV9009:ADRV9009BBCZ U1
U 2 1 5DDBCC33
P 6000 2050
F 0 "U1" H 7500 2437 60  0000 C CNN
F 1 "ADRV9009BBCZ" H 7500 2331 60  0000 C CNN
F 2 "BC_196_13" H 7500 2290 60  0001 C CNN
F 3 "" H 6000 2050 60  0000 C CNN
	2    6000 2050
	1    0    0    -1  
$EndComp
Text GLabel 6000 3350 0    50   Input ~ 0
VDDA1P3_RF_SYNTH
Text GLabel 5600 3550 0    50   Input ~ 0
VDDA1P3_RF_VCO_LDO
Text GLabel 6000 3650 0    50   Input ~ 0
VDDA1P3_RX_RF
Text GLabel 6000 3750 0    50   Input ~ 0
VDDA1P3_RX_TX
Text GLabel 6000 4050 0    50   Input ~ 0
VDDAP8_BB
Text GLabel 6000 4150 0    50   Input ~ 0
VDDA1P8_TX
Text GLabel 5600 4350 0    50   Input ~ 0
VDDD1P3_DIG
Wire Wire Line
	6000 3050 4700 3050
Wire Wire Line
	4700 3050 4700 3850
Wire Wire Line
	5600 4350 5800 4350
Wire Wire Line
	5600 3550 5800 3550
Wire Wire Line
	6000 4250 5800 4250
Wire Wire Line
	5800 4250 5800 4350
Connection ~ 5800 4350
Wire Wire Line
	5800 4350 6000 4350
Wire Wire Line
	6000 3850 5800 3850
Wire Wire Line
	5800 3850 5800 3950
Connection ~ 5800 3950
Wire Wire Line
	5800 3950 6000 3950
Wire Wire Line
	6000 3450 5800 3450
Wire Wire Line
	5800 3450 5800 3550
Connection ~ 5800 3550
Wire Wire Line
	5800 3550 6000 3550
Wire Wire Line
	5600 3950 5750 3950
Wire Wire Line
	5750 3850 5750 3950
Wire Wire Line
	4700 3850 5750 3850
Connection ~ 5750 3950
Wire Wire Line
	5750 3950 5800 3950
$EndSCHEMATC
