EESchema Schematic File Version 4
EELAYER 30 0
EELAYER END
$Descr A3 16535 11693
encoding utf-8
Sheet 6 8
Title "AXSDR: COSMIC_RF"
Date "2019-08-15"
Rev "Mk. 1"
Comp "ASTREX Space Lab"
Comment1 "By Lync"
Comment2 ""
Comment3 ""
Comment4 "49394D 6554 576552 57495448 47546556495459 "
$EndDescr
Text GLabel 2700 1650 0    49   Input ~ 0
3P3V_CLK1
Text GLabel 2700 3650 0    49   Input ~ 0
CLK+
Text GLabel 2700 3750 0    49   Input ~ 0
CLK-
Text GLabel 2450 1750 0    49   Input ~ 0
3P3V_CLK1
Wire Wire Line
	2450 1750 2600 1750
Wire Wire Line
	2700 1850 2600 1850
Wire Wire Line
	2600 1850 2600 1750
Connection ~ 2600 1750
Wire Wire Line
	2600 1750 2700 1750
Text GLabel 1900 2450 0    49   Input ~ 0
VDD3
Wire Wire Line
	1900 2450 2000 2450
Wire Wire Line
	2700 1950 2000 1950
Wire Wire Line
	2000 1950 2000 2450
Connection ~ 2000 2450
Wire Wire Line
	2000 2450 2100 2450
Wire Wire Line
	2700 2150 2100 2150
Wire Wire Line
	2100 2150 2100 2450
Connection ~ 2100 2450
Wire Wire Line
	2100 2450 2200 2450
Wire Wire Line
	2700 2250 2200 2250
Wire Wire Line
	2200 2250 2200 2450
Connection ~ 2200 2450
Wire Wire Line
	2200 2450 2300 2450
Wire Wire Line
	2700 2350 2300 2350
Wire Wire Line
	2300 2350 2300 2450
Connection ~ 2300 2450
Wire Wire Line
	2300 2450 2700 2450
Text GLabel 2000 3050 0    49   Input ~ 0
3P3V_CLK1
Wire Wire Line
	2000 3050 2050 3050
Wire Wire Line
	2700 2550 2050 2550
Wire Wire Line
	2050 2550 2050 3050
Connection ~ 2050 3050
Wire Wire Line
	2050 3050 2150 3050
Wire Wire Line
	2700 2650 2150 2650
Wire Wire Line
	2150 2650 2150 3050
Connection ~ 2150 3050
Wire Wire Line
	2150 3050 2250 3050
Wire Wire Line
	2700 2750 2250 2750
Wire Wire Line
	2250 2750 2250 3050
Connection ~ 2250 3050
Wire Wire Line
	2250 3050 2350 3050
Wire Wire Line
	2700 2850 2350 2850
Wire Wire Line
	2350 2850 2350 3050
Connection ~ 2350 3050
Wire Wire Line
	2350 3050 2450 3050
Wire Wire Line
	2700 2950 2450 2950
Wire Wire Line
	2450 2950 2450 3050
Connection ~ 2450 3050
Wire Wire Line
	2450 3050 2700 3050
Text GLabel 2700 4950 0    49   Input ~ 0
SPI_CS_9528
Text GLabel 2700 2050 0    49   Input ~ 0
3P3V_CLK1
Text GLabel 2700 3150 0    49   Input ~ 0
3P3V_CLK1
Text GLabel 2700 3250 0    49   Input ~ 0
3P3V_CLK1
Text GLabel 2700 3350 0    49   Input ~ 0
3P3V_CLK1
Text GLabel 2700 3450 0    49   Input ~ 0
3P3V_CLK1
Text GLabel 2700 4250 0    50   Input ~ 0
VCXO_IN+
Text GLabel 2700 5850 0    50   Input ~ 0
VCXO_IN-
Text GLabel 2700 4350 0    50   Input ~ 0
VXCO_CTRL
$Comp
L Device:R R22
U 1 1 5D648C98
P 1800 5650
F 0 "R22" H 1870 5696 50  0000 L CNN
F 1 "10.2K" H 1870 5605 50  0000 L CNN
F 2 "" V 1730 5650 50  0001 C CNN
F 3 "~" H 1800 5650 50  0001 C CNN
	1    1800 5650
	1    0    0    -1  
$EndComp
$Comp
L power:GNDA #PWR021
U 1 1 5D6496B9
P 1650 6400
F 0 "#PWR021" H 1650 6150 50  0001 C CNN
F 1 "GNDA" H 1655 6227 50  0000 C CNN
F 2 "" H 1650 6400 50  0001 C CNN
F 3 "" H 1650 6400 50  0001 C CNN
	1    1650 6400
	1    0    0    -1  
$EndComp
$Comp
L Device:C C27
U 1 1 5D649074
P 1300 5750
F 0 "C27" H 1415 5796 50  0000 L CNN
F 1 "180PF" H 1415 5705 50  0000 L CNN
F 2 "" H 1338 5600 50  0001 C CNN
F 3 "~" H 1300 5750 50  0001 C CNN
	1    1300 5750
	1    0    0    -1  
$EndComp
$Comp
L Device:C C29
U 1 1 5D64A30B
P 1800 6050
F 0 "C29" H 1915 6096 50  0000 L CNN
F 1 "1UF" H 1915 6005 50  0000 L CNN
F 2 "" H 1838 5900 50  0001 C CNN
F 3 "~" H 1800 6050 50  0001 C CNN
	1    1800 6050
	1    0    0    -1  
$EndComp
Wire Wire Line
	2700 5550 2000 5550
Wire Wire Line
	2000 5550 2000 5350
Connection ~ 1650 6200
Wire Wire Line
	1650 6200 1800 6200
Wire Wire Line
	2000 5350 1800 5350
Wire Wire Line
	1300 5350 1300 5600
Wire Wire Line
	1300 5900 1300 6200
Wire Wire Line
	1300 6200 1650 6200
Wire Wire Line
	1650 6200 1650 6350
Wire Wire Line
	1800 5900 1800 5800
Connection ~ 1800 5350
Wire Wire Line
	1800 5350 1300 5350
Text GLabel 2700 5150 0    50   Input ~ 0
SYSREF_CLK_IN-
Text GLabel 2700 5250 0    50   Input ~ 0
SYSREF_CLK_IN+
$Comp
L Device:C C31
U 1 1 5D684E61
P 2200 6000
F 0 "C31" H 2315 6046 50  0000 L CNN
F 1 "1000PF" H 2315 5955 50  0000 L CNN
F 2 "" H 2238 5850 50  0001 C CNN
F 3 "~" H 2200 6000 50  0001 C CNN
	1    2200 6000
	1    0    0    -1  
$EndComp
Wire Wire Line
	2700 5650 2200 5650
Wire Wire Line
	2200 5650 2200 5850
Text GLabel 2200 6200 3    50   Input ~ 0
LF2_PLL
$Comp
L Device:C C42
U 1 1 5D6895E9
P 6500 1900
F 0 "C42" H 6615 1946 50  0000 L CNN
F 1 "C" H 6615 1855 50  0000 L CNN
F 2 "" H 6538 1750 50  0001 C CNN
F 3 "~" H 6500 1900 50  0001 C CNN
	1    6500 1900
	1    0    0    -1  
$EndComp
$Comp
L power:GNDA #PWR023
U 1 1 5D689CE9
P 6500 2200
F 0 "#PWR023" H 6500 1950 50  0001 C CNN
F 1 "GNDA" H 6505 2027 50  0000 C CNN
F 2 "" H 6500 2200 50  0001 C CNN
F 3 "" H 6500 2200 50  0001 C CNN
	1    6500 2200
	1    0    0    -1  
$EndComp
Text GLabel 6650 2150 2    50   Input ~ 0
LF2_PLL
Wire Wire Line
	2000 6350 1650 6350
Connection ~ 1650 6350
Wire Wire Line
	1650 6350 1650 6400
NoConn ~ 6100 5750
NoConn ~ 6100 5850
Wire Wire Line
	6100 5650 6250 5650
Wire Wire Line
	6300 5650 6300 6600
Wire Wire Line
	2000 6600 2000 6350
Wire Wire Line
	2200 6200 2200 6150
Wire Wire Line
	2000 6600 6300 6600
Wire Wire Line
	6100 5550 6250 5550
Wire Wire Line
	6250 5550 6250 5650
Connection ~ 6250 5650
Wire Wire Line
	6250 5650 6300 5650
Text GLabel 2700 4550 0    50   Input ~ 0
SPI_CLK_9528
Text GLabel 2700 4650 0    50   Input ~ 0
SPI_DIN_9528
Text GLabel 6100 2850 2    50   Output ~ 0
OUT5
$Comp
L AD9528BCPZ:AD9528BCPZ U2
U 1 1 5D839B04
P 2700 1650
F 0 "U2" H 4400 2037 60  0000 C CNN
F 1 "AD9528BCPZ" H 4400 1931 60  0000 C CNN
F 2 "CP_72_6" H 4400 1890 60  0001 C CNN
F 3 "" H 2700 1650 60  0000 C CNN
	1    2700 1650
	1    0    0    -1  
$EndComp
Text GLabel 6100 2950 2    50   Output ~ 0
OUT5_N
Text GLabel 6100 3250 2    50   Output ~ 0
OUT7
Text GLabel 6100 3350 2    50   Output ~ 0
OUT7_N
Text GLabel 6100 3550 2    50   Output ~ 0
OUT8_N
Text GLabel 6100 3450 2    50   Output ~ 0
OUT8
Text GLabel 6100 2050 2    50   Output ~ 0
OUT1
Text GLabel 6100 2150 2    50   Output ~ 0
OUT1_N
Text GLabel 6100 2450 2    50   Output ~ 0
OUT3
Text GLabel 6100 2550 2    50   Output ~ 0
OUT3_N
NoConn ~ 6100 1850
NoConn ~ 6100 1950
NoConn ~ 6100 2250
NoConn ~ 6100 2350
NoConn ~ 6100 2650
NoConn ~ 6100 2750
NoConn ~ 6100 3050
NoConn ~ 6100 3150
NoConn ~ 6100 3650
NoConn ~ 6100 3750
NoConn ~ 6100 3850
NoConn ~ 6100 3950
NoConn ~ 6100 4050
NoConn ~ 6100 4150
NoConn ~ 6100 4450
NoConn ~ 6100 4550
Text GLabel 6100 4750 2    50   Output ~ 0
STATUS_0
Text GLabel 6100 4850 2    50   Output ~ 0
STATUS_1
Wire Wire Line
	6100 1650 6500 1650
Wire Wire Line
	6500 1750 6500 1650
Wire Wire Line
	6500 2200 6500 2150
Wire Wire Line
	6650 2150 6500 2150
Connection ~ 6500 2150
Wire Wire Line
	6500 2150 6500 2050
Wire Wire Line
	6100 5250 6500 5250
Wire Wire Line
	6500 5250 6500 6950
Wire Wire Line
	6500 6950 4000 6950
Wire Wire Line
	1000 6950 1000 4050
Wire Wire Line
	1000 4050 2700 4050
$Comp
L power:GNDA #PWR022
U 1 1 5D746ABF
P 4000 7100
F 0 "#PWR022" H 4000 6850 50  0001 C CNN
F 1 "GNDA" H 4005 6927 50  0000 C CNN
F 2 "" H 4000 7100 50  0001 C CNN
F 3 "" H 4000 7100 50  0001 C CNN
	1    4000 7100
	1    0    0    -1  
$EndComp
Connection ~ 4000 6950
Wire Wire Line
	4000 6950 1000 6950
Wire Wire Line
	4000 7100 4000 6950
$Comp
L Device:R R21
U 1 1 5D74D552
P 1150 5200
F 0 "R21" H 1220 5246 50  0000 L CNN
F 1 "10K" H 1220 5155 50  0000 L CNN
F 2 "" V 1080 5200 50  0001 C CNN
F 3 "~" H 1150 5200 50  0001 C CNN
	1    1150 5200
	1    0    0    -1  
$EndComp
Wire Wire Line
	1450 5300 1450 5000
Wire Wire Line
	1450 5000 1150 5000
Wire Wire Line
	1150 5000 1150 5050
$Comp
L power:GNDA #PWR020
U 1 1 5D7510BD
P 1150 5450
F 0 "#PWR020" H 1150 5200 50  0001 C CNN
F 1 "GNDA" H 1155 5277 50  0000 C CNN
F 2 "" H 1150 5450 50  0001 C CNN
F 3 "" H 1150 5450 50  0001 C CNN
	1    1150 5450
	1    0    0    -1  
$EndComp
Wire Wire Line
	1150 5450 1150 5350
Text GLabel 2600 5350 0    50   Input ~ 0
SYSREF_REQ
Wire Wire Line
	2600 5350 2650 5350
Wire Wire Line
	1450 5300 2050 5300
Wire Wire Line
	2050 5300 2050 5450
Wire Wire Line
	2050 5450 2650 5450
Wire Wire Line
	2650 5450 2650 5350
Connection ~ 2650 5350
Wire Wire Line
	2650 5350 2700 5350
Text GLabel 2200 4850 0    50   Output ~ 0
SPI_DOUT_9521
Text GLabel 7050 5050 2    50   Input ~ 0
3P3V_CLK1
$Comp
L Device:R R26
U 1 1 5D76C009
P 6800 5050
F 0 "R26" V 7007 5050 50  0000 C CNN
F 1 "10K" V 6916 5050 50  0000 C CNN
F 2 "" V 6730 5050 50  0001 C CNN
F 3 "~" H 6800 5050 50  0001 C CNN
	1    6800 5050
	0    -1   -1   0   
$EndComp
Text Label 6100 5050 0    50   ~ 0
CLK_RESETB
Wire Wire Line
	6100 5050 6650 5050
Wire Wire Line
	6950 5050 7050 5050
NoConn ~ 2700 3850
NoConn ~ 2700 3950
Wire Wire Line
	1800 5350 1800 5500
$Comp
L ADG3301:ADG3301BKSZ-REEL U5
U 1 1 5D79B176
P 12500 2000
F 0 "U5" H 13300 2387 60  0000 C CNN
F 1 "ADG3301BKSZ-REEL" H 13300 2281 60  0000 C CNN
F 2 "KS_6" H 13300 2240 60  0001 C CNN
F 3 "" H 12500 2000 60  0000 C CNN
	1    12500 2000
	1    0    0    -1  
$EndComp
Text GLabel 11500 2000 0    50   Input ~ 0
VDD_INTERFACE
Text GLabel 11500 2100 0    50   Input ~ 0
3P3V_CLK1
Wire Wire Line
	11500 2000 12000 2000
Wire Wire Line
	11500 2100 12000 2100
$Comp
L Device:C C52
U 1 1 5D7A2C71
P 12000 1750
F 0 "C52" H 12115 1796 50  0000 L CNN
F 1 "0.1UF" H 12115 1705 50  0000 L CNN
F 2 "" H 12038 1600 50  0001 C CNN
F 3 "~" H 12000 1750 50  0001 C CNN
	1    12000 1750
	1    0    0    -1  
$EndComp
$Comp
L Device:C C53
U 1 1 5D7A32C7
P 12000 2650
F 0 "C53" H 12115 2696 50  0000 L CNN
F 1 "0.1 UF" H 12115 2605 50  0000 L CNN
F 2 "" H 12038 2500 50  0001 C CNN
F 3 "~" H 12000 2650 50  0001 C CNN
	1    12000 2650
	1    0    0    -1  
$EndComp
$Comp
L power:GNDA #PWR027
U 1 1 5D7A3826
P 12000 2900
F 0 "#PWR027" H 12000 2650 50  0001 C CNN
F 1 "GNDA" H 12005 2727 50  0000 C CNN
F 2 "" H 12000 2900 50  0001 C CNN
F 3 "" H 12000 2900 50  0001 C CNN
	1    12000 2900
	1    0    0    -1  
$EndComp
$Comp
L power:GNDA #PWR026
U 1 1 5D7A3AC8
P 12000 1500
F 0 "#PWR026" H 12000 1250 50  0001 C CNN
F 1 "GNDA" H 12005 1327 50  0000 C CNN
F 2 "" H 12000 1500 50  0001 C CNN
F 3 "" H 12000 1500 50  0001 C CNN
	1    12000 1500
	-1   0    0    1   
$EndComp
Wire Wire Line
	12000 1600 12000 1500
Wire Wire Line
	12000 1900 12000 2000
Connection ~ 12000 2000
Wire Wire Line
	12000 2000 12250 2000
Connection ~ 12000 2100
Wire Wire Line
	12000 2100 12500 2100
Wire Wire Line
	12500 2500 12250 2500
Wire Wire Line
	12250 2500 12250 2000
Connection ~ 12250 2000
Wire Wire Line
	12250 2000 12500 2000
Text GLabel 11500 2300 0    50   Input ~ 0
FMC_CLK_RESETB
Wire Wire Line
	12000 2100 12000 2500
$Comp
L power:GNDA #PWR032
U 1 1 5D7BBFAA
P 14350 2050
F 0 "#PWR032" H 14350 1800 50  0001 C CNN
F 1 "GNDA" H 14355 1877 50  0000 C CNN
F 2 "" H 14350 2050 50  0001 C CNN
F 3 "" H 14350 2050 50  0001 C CNN
	1    14350 2050
	1    0    0    -1  
$EndComp
Text GLabel 14450 2300 2    50   Input ~ 0
CLK_RESETB
Wire Wire Line
	14450 2300 14100 2300
Wire Wire Line
	14100 2000 14350 2000
Wire Wire Line
	14350 2000 14350 2050
Wire Wire Line
	11500 2300 12500 2300
$Comp
L ADG3304:ADG3304BRUZ U4
U 1 1 5D7CA5D3
P 12300 3800
F 0 "U4" H 13400 4187 60  0000 C CNN
F 1 "ADG3304BRUZ" H 13400 4081 60  0000 C CNN
F 2 "RU_14" H 12300 3800 60  0001 C CNN
F 3 "" H 12300 3800 60  0000 C CNN
	1    12300 3800
	1    0    0    -1  
$EndComp
Text GLabel 12300 4000 0    50   Input ~ 0
FMC_SYSREF_REQUEST
Text GLabel 12300 4100 0    50   Input ~ 0
SPI_CLK
Text GLabel 12300 4200 0    50   Input ~ 0
SPI_DIN
Text GLabel 12300 4300 0    50   Input ~ 0
SPI_CS1
Text GLabel 11300 4700 0    50   Input ~ 0
VDD_INTERFACE
Wire Wire Line
	11300 4700 11450 4700
Text GLabel 11300 4800 0    50   Input ~ 0
3P3V_CLK1
$Comp
L Device:C C50
U 1 1 5D7D331E
P 11450 4400
F 0 "C50" H 11565 4446 50  0000 L CNN
F 1 "0.1UF" H 11565 4355 50  0000 L CNN
F 2 "" H 11488 4250 50  0001 C CNN
F 3 "~" H 11450 4400 50  0001 C CNN
	1    11450 4400
	1    0    0    -1  
$EndComp
$Comp
L Device:C C51
U 1 1 5D7D36B0
P 11650 5050
F 0 "C51" H 11765 5096 50  0000 L CNN
F 1 "0.1UF" H 11765 5005 50  0000 L CNN
F 2 "" H 11688 4900 50  0001 C CNN
F 3 "~" H 11650 5050 50  0001 C CNN
	1    11650 5050
	1    0    0    -1  
$EndComp
$Comp
L power:GNDA #PWR024
U 1 1 5D7D3A98
P 11000 4300
F 0 "#PWR024" H 11000 4050 50  0001 C CNN
F 1 "GNDA" H 11005 4127 50  0000 C CNN
F 2 "" H 11000 4300 50  0001 C CNN
F 3 "" H 11000 4300 50  0001 C CNN
	1    11000 4300
	1    0    0    -1  
$EndComp
$Comp
L power:GNDA #PWR025
U 1 1 5D7D3D64
P 11650 5300
F 0 "#PWR025" H 11650 5050 50  0001 C CNN
F 1 "GNDA" H 11655 5127 50  0000 C CNN
F 2 "" H 11650 5300 50  0001 C CNN
F 3 "" H 11650 5300 50  0001 C CNN
	1    11650 5300
	1    0    0    -1  
$EndComp
Wire Wire Line
	11450 4550 11450 4700
Connection ~ 11450 4700
Wire Wire Line
	11450 4250 11000 4250
Wire Wire Line
	11000 4250 11000 4300
Wire Wire Line
	12300 3800 11400 3800
Wire Wire Line
	11400 3800 11400 4200
Wire Wire Line
	11850 4200 11850 4700
Wire Wire Line
	11650 4900 11650 4800
Text GLabel 14500 4100 2    50   Input ~ 0
SPI_CLK_9528
Text GLabel 14500 4200 2    50   Input ~ 0
SPI_DIN_9528
Text GLabel 14500 4300 2    50   Input ~ 0
SPI_CS_9528
Text GLabel 14500 4000 2    50   Input ~ 0
CLK_SYSREF_REQUEST
NoConn ~ 14500 4500
NoConn ~ 14500 4600
$Comp
L power:GNDA #PWR033
U 1 1 5D81790F
P 14650 5000
F 0 "#PWR033" H 14650 4750 50  0001 C CNN
F 1 "GNDA" H 14655 4827 50  0000 C CNN
F 2 "" H 14650 5000 50  0001 C CNN
F 3 "" H 14650 5000 50  0001 C CNN
	1    14650 5000
	1    0    0    -1  
$EndComp
Wire Wire Line
	14500 4800 14650 4800
Wire Wire Line
	14650 4800 14650 5000
Wire Wire Line
	12000 2800 12000 2900
Connection ~ 11850 4700
Wire Wire Line
	11850 4700 12300 4700
Wire Wire Line
	11450 4700 11850 4700
Wire Wire Line
	11400 4200 11850 4200
Connection ~ 11650 4800
Wire Wire Line
	11650 4800 12300 4800
Wire Wire Line
	11300 4800 11650 4800
Wire Wire Line
	11650 5200 11650 5300
$Comp
L NC7WV155K8X:NC7WV125K8X U3
U 1 1 5D7C1B0D
P 12000 7250
F 0 "U3" H 12000 7831 50  0000 C CNN
F 1 "NC7WV125K8X" H 11650 6800 50  0000 C CNN
F 2 "" H 12300 7600 50  0001 C CNN
F 3 "" H 12300 7600 50  0001 C CNN
	1    12000 7250
	1    0    0    -1  
$EndComp
$Comp
L power:GNDA #PWR028
U 1 1 5D7C776B
P 12000 8000
F 0 "#PWR028" H 12000 7750 50  0001 C CNN
F 1 "GNDA" H 12005 7827 50  0000 C CNN
F 2 "" H 12000 8000 50  0001 C CNN
F 3 "" H 12000 8000 50  0001 C CNN
	1    12000 8000
	1    0    0    -1  
$EndComp
Wire Wire Line
	12000 7650 12000 8000
Text GLabel 11000 7200 0    50   Output ~ 0
SPI_DOUT
Wire Wire Line
	11000 7200 11300 7200
Wire Wire Line
	11450 7300 11300 7300
Wire Wire Line
	11300 7300 11300 7200
Connection ~ 11300 7200
Wire Wire Line
	11300 7200 11450 7200
Text GLabel 11400 6750 0    50   Input ~ 0
VDD_INTERFACE
$Comp
L Device:C C54
U 1 1 5D7D3A1D
P 12500 6750
F 0 "C54" V 12248 6750 50  0000 C CNN
F 1 "C" V 12339 6750 50  0000 C CNN
F 2 "" H 12538 6600 50  0001 C CNN
F 3 "~" H 12500 6750 50  0001 C CNN
	1    12500 6750
	0    1    1    0   
$EndComp
$Comp
L power:GNDA #PWR029
U 1 1 5D7D3D32
P 12750 6650
F 0 "#PWR029" H 12750 6400 50  0001 C CNN
F 1 "GNDA" H 12755 6477 50  0000 C CNN
F 2 "" H 12750 6650 50  0001 C CNN
F 3 "" H 12750 6650 50  0001 C CNN
	1    12750 6650
	-1   0    0    1   
$EndComp
Wire Wire Line
	11400 6750 12000 6750
Wire Wire Line
	12650 6750 12750 6750
Wire Wire Line
	12000 6850 12000 6750
Connection ~ 12000 6750
Wire Wire Line
	12000 6750 12350 6750
Text GLabel 13200 6700 2    50   Output ~ 0
SPI_DOUT_9521
Text GLabel 12700 7200 2    50   Input ~ 0
SPI_CS1
$Comp
L freetronics_schematic:IORef #PWR030
U 1 1 5D7E2B35
P 13750 6950
F 0 "#PWR030" H 13750 6910 30  0001 C CNN
F 1 "IORef" H 13759 7088 30  0000 C CNN
F 2 "" H 13750 6950 60  0000 C CNN
F 3 "" H 13750 6950 60  0000 C CNN
	1    13750 6950
	1    0    0    -1  
$EndComp
$Comp
L Device:R R30
U 1 1 5D7E2F14
P 12850 7100
F 0 "R30" V 12850 7150 50  0000 C CNN
F 1 "0" V 12850 7050 50  0000 C CNN
F 2 "" V 12780 7100 50  0001 C CNN
F 3 "~" H 12850 7100 50  0001 C CNN
	1    12850 7100
	0    -1   -1   0   
$EndComp
Wire Wire Line
	12750 6750 12750 6650
Wire Wire Line
	12700 7100 12550 7100
$Comp
L Device:R R31
U 1 1 5D7F3B86
P 12850 7300
F 0 "R31" V 12850 7350 50  0000 C CNN
F 1 "0" V 12850 7250 50  0000 C CNN
F 2 "" V 12780 7300 50  0001 C CNN
F 3 "~" H 12850 7300 50  0001 C CNN
	1    12850 7300
	0    -1   -1   0   
$EndComp
Wire Wire Line
	12550 7300 12700 7300
$Comp
L freetronics_schematic:IORef #PWR031
U 1 1 5D7FD461
P 13750 7350
F 0 "#PWR031" H 13750 7310 30  0001 C CNN
F 1 "IORef" H 13759 7488 30  0000 C CNN
F 2 "" H 13750 7350 60  0000 C CNN
F 3 "" H 13750 7350 60  0000 C CNN
	1    13750 7350
	-1   0    0    1   
$EndComp
Wire Wire Line
	13750 7300 13750 7350
Text GLabel 12700 7400 2    50   Input ~ 0
SPI_CS0
Wire Wire Line
	12700 7200 12550 7200
Wire Wire Line
	12700 7400 12550 7400
Wire Wire Line
	2700 4750 2250 4750
Text Label 2200 4750 2    50   ~ 0
SPI_DOUT_9521
Wire Wire Line
	2200 4850 2250 4850
Wire Wire Line
	2250 4850 2250 4750
Connection ~ 2250 4750
Wire Wire Line
	2250 4750 2200 4750
Text Label 13150 7100 0    50   ~ 0
SPI_DOUT_9521
Wire Wire Line
	13750 7100 13750 6950
Wire Wire Line
	13000 7100 13750 7100
Wire Wire Line
	13000 7300 13750 7300
Text Label 13150 7300 0    50   ~ 0
SPI_DOUT_DUT
Text GLabel 6100 4250 2    50   Output ~ 0
OUT12
Text GLabel 6100 4350 2    50   Output ~ 0
OUT12_N
Text GLabel 8500 7950 0    50   Input ~ 0
OUT12
$Comp
L Device:R R28
U 1 1 5DC1A890
P 9150 7950
F 0 "R28" V 8943 7950 50  0000 C CNN
F 1 "R" V 9034 7950 50  0000 C CNN
F 2 "" V 9080 7950 50  0001 C CNN
F 3 "~" H 9150 7950 50  0001 C CNN
	1    9150 7950
	0    1    1    0   
$EndComp
$Comp
L Device:R R29
U 1 1 5DC1AD57
P 9150 8450
F 0 "R29" V 8943 8450 50  0000 C CNN
F 1 "R" V 9034 8450 50  0000 C CNN
F 2 "" V 9080 8450 50  0001 C CNN
F 3 "~" H 9150 8450 50  0001 C CNN
	1    9150 8450
	0    1    1    0   
$EndComp
Text GLabel 8500 8450 0    50   Input ~ 0
OUT12_N
$Comp
L Device:R R27
U 1 1 5DC1B4AD
P 8750 8200
F 0 "R27" H 8820 8246 50  0000 L CNN
F 1 "R" H 8820 8155 50  0000 L CNN
F 2 "" V 8680 8200 50  0001 C CNN
F 3 "~" H 8750 8200 50  0001 C CNN
	1    8750 8200
	1    0    0    -1  
$EndComp
Wire Wire Line
	8500 7950 8750 7950
Wire Wire Line
	8500 8450 8750 8450
Wire Wire Line
	8750 8050 8750 7950
Connection ~ 8750 7950
Wire Wire Line
	8750 7950 9000 7950
Wire Wire Line
	8750 8350 8750 8450
Connection ~ 8750 8450
Wire Wire Line
	8750 8450 9000 8450
Text GLabel 9500 7950 2    50   Input ~ 0
SYSREF_IN+
Text GLabel 9500 8450 2    50   Input ~ 0
SYSREF_IN-
Wire Wire Line
	9300 7950 9500 7950
Wire Wire Line
	9300 8450 9500 8450
$Comp
L Device:C C26
U 1 1 5E0AB0B8
P 1000 9650
F 0 "C26" H 1115 9696 50  0000 L CNN
F 1 "1UF" H 1115 9605 50  0000 L CNN
F 2 "" H 1038 9500 50  0001 C CNN
F 3 "~" H 1000 9650 50  0001 C CNN
	1    1000 9650
	1    0    0    -1  
$EndComp
$Comp
L Device:C C28
U 1 1 5E0AB6A4
P 1400 9650
F 0 "C28" H 1515 9696 50  0000 L CNN
F 1 "0.1UF" H 1515 9605 50  0000 L CNN
F 2 "" H 1438 9500 50  0001 C CNN
F 3 "~" H 1400 9650 50  0001 C CNN
	1    1400 9650
	1    0    0    -1  
$EndComp
$Comp
L Device:C C30
U 1 1 5E0ACC9B
P 1850 9650
F 0 "C30" H 1965 9696 50  0000 L CNN
F 1 "0.1UF" H 1965 9605 50  0000 L CNN
F 2 "" H 1888 9500 50  0001 C CNN
F 3 "~" H 1850 9650 50  0001 C CNN
	1    1850 9650
	1    0    0    -1  
$EndComp
$Comp
L Device:C C32
U 1 1 5E0ACCA5
P 2300 9650
F 0 "C32" H 2415 9696 50  0000 L CNN
F 1 "0.1UF" H 2415 9605 50  0000 L CNN
F 2 "" H 2338 9500 50  0001 C CNN
F 3 "~" H 2300 9650 50  0001 C CNN
	1    2300 9650
	1    0    0    -1  
$EndComp
$Comp
L Device:C C33
U 1 1 5E0B36AB
P 2750 9650
F 0 "C33" H 2865 9696 50  0000 L CNN
F 1 "0.1UF" H 2865 9605 50  0000 L CNN
F 2 "" H 2788 9500 50  0001 C CNN
F 3 "~" H 2750 9650 50  0001 C CNN
	1    2750 9650
	1    0    0    -1  
$EndComp
$Comp
L Device:C C34
U 1 1 5E0B36B5
P 3200 9650
F 0 "C34" H 3315 9696 50  0000 L CNN
F 1 "0.1UF" H 3315 9605 50  0000 L CNN
F 2 "" H 3238 9500 50  0001 C CNN
F 3 "~" H 3200 9650 50  0001 C CNN
	1    3200 9650
	1    0    0    -1  
$EndComp
$Comp
L Device:C C35
U 1 1 5E0B36BF
P 3650 9650
F 0 "C35" H 3765 9696 50  0000 L CNN
F 1 "0.1UF" H 3765 9605 50  0000 L CNN
F 2 "" H 3688 9500 50  0001 C CNN
F 3 "~" H 3650 9650 50  0001 C CNN
	1    3650 9650
	1    0    0    -1  
$EndComp
$Comp
L Device:C C36
U 1 1 5E0B36C9
P 4100 9650
F 0 "C36" H 4215 9696 50  0000 L CNN
F 1 "0.1UF" H 4215 9605 50  0000 L CNN
F 2 "" H 4138 9500 50  0001 C CNN
F 3 "~" H 4100 9650 50  0001 C CNN
	1    4100 9650
	1    0    0    -1  
$EndComp
$Comp
L Device:C C37
U 1 1 5E0BB809
P 4550 9650
F 0 "C37" H 4665 9696 50  0000 L CNN
F 1 "0.1UF" H 4665 9605 50  0000 L CNN
F 2 "" H 4588 9500 50  0001 C CNN
F 3 "~" H 4550 9650 50  0001 C CNN
	1    4550 9650
	1    0    0    -1  
$EndComp
$Comp
L Device:C C38
U 1 1 5E0BB813
P 5000 9650
F 0 "C38" H 5115 9696 50  0000 L CNN
F 1 "0.1UF" H 5115 9605 50  0000 L CNN
F 2 "" H 5038 9500 50  0001 C CNN
F 3 "~" H 5000 9650 50  0001 C CNN
	1    5000 9650
	1    0    0    -1  
$EndComp
$Comp
L Device:C C39
U 1 1 5E0BB81D
P 5450 9650
F 0 "C39" H 5565 9696 50  0000 L CNN
F 1 "0.1UF" H 5565 9605 50  0000 L CNN
F 2 "" H 5488 9500 50  0001 C CNN
F 3 "~" H 5450 9650 50  0001 C CNN
	1    5450 9650
	1    0    0    -1  
$EndComp
$Comp
L Device:C C40
U 1 1 5E0BB827
P 5900 9650
F 0 "C40" H 6015 9696 50  0000 L CNN
F 1 "0.1UF" H 6015 9605 50  0000 L CNN
F 2 "" H 5938 9500 50  0001 C CNN
F 3 "~" H 5900 9650 50  0001 C CNN
	1    5900 9650
	1    0    0    -1  
$EndComp
$Comp
L Device:C C41
U 1 1 5E0BB831
P 6350 9650
F 0 "C41" H 6465 9696 50  0000 L CNN
F 1 "0.1UF" H 6465 9605 50  0000 L CNN
F 2 "" H 6388 9500 50  0001 C CNN
F 3 "~" H 6350 9650 50  0001 C CNN
	1    6350 9650
	1    0    0    -1  
$EndComp
$Comp
L Device:C C43
U 1 1 5E0BB83B
P 6800 9650
F 0 "C43" H 6915 9696 50  0000 L CNN
F 1 "0.1UF" H 6915 9605 50  0000 L CNN
F 2 "" H 6838 9500 50  0001 C CNN
F 3 "~" H 6800 9650 50  0001 C CNN
	1    6800 9650
	1    0    0    -1  
$EndComp
$Comp
L Device:C C44
U 1 1 5E0BB845
P 7250 9650
F 0 "C44" H 7365 9696 50  0000 L CNN
F 1 "0.1UF" H 7365 9605 50  0000 L CNN
F 2 "" H 7288 9500 50  0001 C CNN
F 3 "~" H 7250 9650 50  0001 C CNN
	1    7250 9650
	1    0    0    -1  
$EndComp
$Comp
L Device:C C45
U 1 1 5E0BB84F
P 7700 9650
F 0 "C45" H 7815 9696 50  0000 L CNN
F 1 "0.1UF" H 7815 9605 50  0000 L CNN
F 2 "" H 7738 9500 50  0001 C CNN
F 3 "~" H 7700 9650 50  0001 C CNN
	1    7700 9650
	1    0    0    -1  
$EndComp
$Comp
L Device:C C46
U 1 1 5E0C5BE5
P 8150 9650
F 0 "C46" H 8265 9696 50  0000 L CNN
F 1 "0.1UF" H 8265 9605 50  0000 L CNN
F 2 "" H 8188 9500 50  0001 C CNN
F 3 "~" H 8150 9650 50  0001 C CNN
	1    8150 9650
	1    0    0    -1  
$EndComp
$Comp
L Device:C C47
U 1 1 5E0C5BEF
P 8600 9650
F 0 "C47" H 8715 9696 50  0000 L CNN
F 1 "0.1UF" H 8715 9605 50  0000 L CNN
F 2 "" H 8638 9500 50  0001 C CNN
F 3 "~" H 8600 9650 50  0001 C CNN
	1    8600 9650
	1    0    0    -1  
$EndComp
$Comp
L Device:C C48
U 1 1 5E0C5BF9
P 9050 9650
F 0 "C48" H 9165 9696 50  0000 L CNN
F 1 "0.1UF" H 9165 9605 50  0000 L CNN
F 2 "" H 9088 9500 50  0001 C CNN
F 3 "~" H 9050 9650 50  0001 C CNN
	1    9050 9650
	1    0    0    -1  
$EndComp
$Comp
L Device:C C49
U 1 1 5E0C5C03
P 9500 9650
F 0 "C49" H 9615 9696 50  0000 L CNN
F 1 "0.1UF" H 9615 9605 50  0000 L CNN
F 2 "" H 9538 9500 50  0001 C CNN
F 3 "~" H 9500 9650 50  0001 C CNN
	1    9500 9650
	1    0    0    -1  
$EndComp
Wire Wire Line
	1000 9500 1000 9350
Wire Wire Line
	1000 9350 1400 9350
Wire Wire Line
	9500 9350 9500 9500
Wire Wire Line
	9500 9800 9500 9950
Wire Wire Line
	1000 9950 1000 9800
$Comp
L power:GNDA #PWR019
U 1 1 5E1AA782
P 1000 10100
F 0 "#PWR019" H 1000 9850 50  0001 C CNN
F 1 "GNDA" H 1005 9927 50  0000 C CNN
F 2 "" H 1000 10100 50  0001 C CNN
F 3 "" H 1000 10100 50  0001 C CNN
	1    1000 10100
	1    0    0    -1  
$EndComp
Wire Wire Line
	1000 10100 1000 9950
Connection ~ 1000 9950
Wire Wire Line
	1400 9500 1400 9350
Wire Wire Line
	1400 9800 1400 9950
Wire Wire Line
	1850 9800 1850 9950
Connection ~ 1850 9950
Wire Wire Line
	1850 9500 1850 9350
Connection ~ 1850 9350
Wire Wire Line
	1850 9350 2300 9350
Wire Wire Line
	2300 9500 2300 9350
Connection ~ 2300 9350
Wire Wire Line
	2300 9350 2750 9350
Wire Wire Line
	2300 9800 2300 9950
Connection ~ 2300 9950
Wire Wire Line
	2300 9950 1850 9950
Wire Wire Line
	2750 9800 2750 9950
Connection ~ 2750 9950
Wire Wire Line
	2750 9950 2300 9950
Wire Wire Line
	2750 9500 2750 9350
Connection ~ 2750 9350
Wire Wire Line
	2750 9350 3200 9350
Wire Wire Line
	3200 9500 3200 9350
Connection ~ 3200 9350
Wire Wire Line
	3200 9350 3650 9350
Wire Wire Line
	3200 9800 3200 9950
Connection ~ 3200 9950
Wire Wire Line
	3200 9950 2750 9950
Wire Wire Line
	3650 9800 3650 9950
Connection ~ 3650 9950
Wire Wire Line
	3650 9950 3200 9950
Wire Wire Line
	3650 9500 3650 9350
Connection ~ 3650 9350
Wire Wire Line
	3650 9350 4100 9350
Wire Wire Line
	4100 9800 4100 9950
Connection ~ 4100 9950
Wire Wire Line
	4100 9950 3650 9950
Wire Wire Line
	4100 9500 4100 9350
Connection ~ 4100 9350
Wire Wire Line
	4100 9350 4550 9350
Wire Wire Line
	4550 9500 4550 9350
Connection ~ 4550 9350
Wire Wire Line
	4550 9350 5000 9350
Wire Wire Line
	4550 9800 4550 9950
Connection ~ 4550 9950
Wire Wire Line
	4550 9950 4100 9950
Wire Wire Line
	5000 9800 5000 9950
Connection ~ 5000 9950
Wire Wire Line
	5000 9950 4550 9950
Wire Wire Line
	5000 9500 5000 9350
Connection ~ 5000 9350
Wire Wire Line
	5000 9350 5450 9350
Wire Wire Line
	5450 9800 5450 9950
Connection ~ 5450 9950
Wire Wire Line
	5450 9950 5000 9950
Wire Wire Line
	5450 9500 5450 9350
Connection ~ 5450 9350
Wire Wire Line
	5450 9350 5900 9350
Wire Wire Line
	5900 9800 5900 9950
Connection ~ 5900 9950
Wire Wire Line
	5900 9950 5450 9950
Wire Wire Line
	5900 9500 5900 9350
Connection ~ 5900 9350
Wire Wire Line
	5900 9350 6350 9350
Wire Wire Line
	6350 9500 6350 9350
Connection ~ 6350 9350
Wire Wire Line
	6350 9350 6800 9350
Wire Wire Line
	6350 9800 6350 9950
Connection ~ 6350 9950
Wire Wire Line
	6350 9950 5900 9950
Wire Wire Line
	6800 9800 6800 9950
Connection ~ 6800 9950
Wire Wire Line
	6800 9950 6350 9950
Wire Wire Line
	6800 9500 6800 9350
Connection ~ 6800 9350
Wire Wire Line
	6800 9350 7250 9350
Wire Wire Line
	7250 9500 7250 9350
Connection ~ 7250 9350
Wire Wire Line
	7250 9350 7700 9350
Wire Wire Line
	7250 9800 7250 9950
Connection ~ 7250 9950
Wire Wire Line
	7250 9950 6800 9950
Wire Wire Line
	7700 9800 7700 9950
Wire Wire Line
	7250 9950 7700 9950
Connection ~ 7700 9950
Wire Wire Line
	7700 9950 8150 9950
Wire Wire Line
	7700 9500 7700 9350
Connection ~ 7700 9350
Wire Wire Line
	7700 9350 8150 9350
Wire Wire Line
	8150 9500 8150 9350
Connection ~ 8150 9350
Wire Wire Line
	8150 9350 8600 9350
Wire Wire Line
	8150 9800 8150 9950
Connection ~ 8150 9950
Wire Wire Line
	8150 9950 8600 9950
Wire Wire Line
	9050 9800 9050 9950
Connection ~ 9050 9950
Wire Wire Line
	9050 9950 9500 9950
Wire Wire Line
	8600 9500 8600 9350
Connection ~ 8600 9350
Wire Wire Line
	8600 9350 9050 9350
Wire Wire Line
	8600 9800 8600 9950
Connection ~ 8600 9950
Wire Wire Line
	8600 9950 9050 9950
Wire Wire Line
	9050 9500 9050 9350
Connection ~ 9050 9350
Wire Wire Line
	9050 9350 9500 9350
Connection ~ 1400 9350
Wire Wire Line
	1400 9350 1850 9350
Connection ~ 1400 9950
Wire Wire Line
	1400 9950 1000 9950
Wire Wire Line
	1400 9950 1850 9950
Text GLabel 1000 9350 1    50   Input ~ 0
3P3V_CLK1
Text GLabel 1500 8000 0    50   Input ~ 0
OUT3
Text GLabel 1500 8500 0    50   Input ~ 0
OUT3_N
$Comp
L Device:R R23
U 1 1 5E33DFB7
P 2000 8250
F 0 "R23" H 2070 8296 50  0000 L CNN
F 1 "100" H 2070 8205 50  0000 L CNN
F 2 "" V 1930 8250 50  0001 C CNN
F 3 "~" H 2000 8250 50  0001 C CNN
	1    2000 8250
	1    0    0    -1  
$EndComp
$Comp
L Device:R R24
U 1 1 5E34B400
P 2350 8000
F 0 "R24" V 2143 8000 50  0000 C CNN
F 1 "0" V 2234 8000 50  0000 C CNN
F 2 "" V 2280 8000 50  0001 C CNN
F 3 "~" H 2350 8000 50  0001 C CNN
	1    2350 8000
	0    1    1    0   
$EndComp
$Comp
L Device:R R25
U 1 1 5E34BA6E
P 2350 8500
F 0 "R25" V 2143 8500 50  0000 C CNN
F 1 "0" V 2234 8500 50  0000 C CNN
F 2 "" V 2280 8500 50  0001 C CNN
F 3 "~" H 2350 8500 50  0001 C CNN
	1    2350 8500
	0    1    1    0   
$EndComp
Wire Wire Line
	1500 8500 2000 8500
Wire Wire Line
	1500 8000 2000 8000
Wire Wire Line
	2000 8100 2000 8000
Connection ~ 2000 8000
Wire Wire Line
	2000 8000 2200 8000
Wire Wire Line
	2000 8400 2000 8500
Connection ~ 2000 8500
Wire Wire Line
	2000 8500 2200 8500
Text GLabel 3000 8000 2    50   Input ~ 0
FPGA_SYSREF+
Text GLabel 3000 8500 2    50   Input ~ 0
FPGA_SYSREF-
Wire Wire Line
	2500 8500 3000 8500
Wire Wire Line
	2500 8000 3000 8000
$EndSCHEMATC
