EESchema Schematic File Version 4
EELAYER 30 0
EELAYER END
$Descr A3 16535 11693
encoding utf-8
Sheet 2 3
Title "Cosmic SDR_MK1"
Date "2019-08-15"
Rev "1"
Comp "Astrex Space Lab"
Comment1 "By Lync"
Comment2 ""
Comment3 ""
Comment4 ""
$EndDescr
$Comp
L ADRV9009:ADRV9009BBCZ U?
U 2 1 5DA53427
P 5700 2700
F 0 "U?" H 7200 3087 60  0000 C CNN
F 1 "ADRV9009BBCZ" H 7200 2981 60  0000 C CNN
F 2 "BC_196_13" H 7200 2940 60  0001 C CNN
F 3 "" H 5700 2700 60  0000 C CNN
	2    5700 2700
	1    0    0    -1  
$EndComp
$Comp
L power:GNDA #PWR?
U 1 1 5DA6CD2C
P 5500 8250
F 0 "#PWR?" H 5500 8000 50  0001 C CNN
F 1 "GNDA" H 5505 8077 50  0000 C CNN
F 2 "" H 5500 8250 50  0001 C CNN
F 3 "" H 5500 8250 50  0001 C CNN
	1    5500 8250
	1    0    0    -1  
$EndComp
$Comp
L power:GNDA #PWR?
U 1 1 5DA6DE8C
P 8900 8250
F 0 "#PWR?" H 8900 8000 50  0001 C CNN
F 1 "GNDA" H 8905 8077 50  0000 C CNN
F 2 "" H 8900 8250 50  0001 C CNN
F 3 "" H 8900 8250 50  0001 C CNN
	1    8900 8250
	1    0    0    -1  
$EndComp
Wire Wire Line
	5700 5500 5500 5500
Wire Wire Line
	5500 5500 5500 5600
Wire Wire Line
	5700 5600 5500 5600
Connection ~ 5500 5600
Wire Wire Line
	5500 5600 5500 5700
Wire Wire Line
	5700 5700 5500 5700
Connection ~ 5500 5700
Wire Wire Line
	5500 5700 5500 5800
Wire Wire Line
	5700 5800 5500 5800
Connection ~ 5500 5800
Wire Wire Line
	5500 5800 5500 5900
Wire Wire Line
	5700 5900 5500 5900
Connection ~ 5500 5900
Wire Wire Line
	5500 5900 5500 6000
Wire Wire Line
	5700 6000 5500 6000
Connection ~ 5500 6000
Wire Wire Line
	5500 6000 5500 6100
Wire Wire Line
	5700 6100 5500 6100
Connection ~ 5500 6100
Wire Wire Line
	5500 6100 5500 6200
Wire Wire Line
	5700 6200 5500 6200
Connection ~ 5500 6200
Wire Wire Line
	5500 6200 5500 6300
Wire Wire Line
	5700 6300 5500 6300
Connection ~ 5500 6300
Wire Wire Line
	5500 6300 5500 6400
Wire Wire Line
	5700 6400 5500 6400
Connection ~ 5500 6400
Wire Wire Line
	5500 6400 5500 6500
Wire Wire Line
	5700 6500 5500 6500
Connection ~ 5500 6500
Wire Wire Line
	5500 6500 5500 6600
Wire Wire Line
	5700 6600 5500 6600
Connection ~ 5500 6600
Wire Wire Line
	5500 6600 5500 6700
Wire Wire Line
	5700 6700 5500 6700
Connection ~ 5500 6700
Wire Wire Line
	5500 6700 5500 6800
Wire Wire Line
	5700 6800 5500 6800
Connection ~ 5500 6800
Wire Wire Line
	5500 6800 5500 6900
Wire Wire Line
	5700 6900 5500 6900
Connection ~ 5500 6900
Wire Wire Line
	5500 6900 5500 7000
Wire Wire Line
	5700 7000 5500 7000
Connection ~ 5500 7000
Wire Wire Line
	5500 7000 5500 7100
Wire Wire Line
	5700 7100 5500 7100
Connection ~ 5500 7100
Wire Wire Line
	5500 7100 5500 7200
Wire Wire Line
	5700 7200 5500 7200
Connection ~ 5500 7200
Wire Wire Line
	5500 7200 5500 7300
Wire Wire Line
	5700 7300 5500 7300
Connection ~ 5500 7300
Wire Wire Line
	5500 7300 5500 7400
Wire Wire Line
	5700 7400 5500 7400
Connection ~ 5500 7400
Wire Wire Line
	5500 7400 5500 7500
Wire Wire Line
	5700 7500 5500 7500
Connection ~ 5500 7500
Wire Wire Line
	5500 7500 5500 7600
Wire Wire Line
	5700 7600 5500 7600
Connection ~ 5500 7600
Wire Wire Line
	5500 7600 5500 7700
Wire Wire Line
	5700 7700 5500 7700
Connection ~ 5500 7700
Wire Wire Line
	5500 7700 5500 7800
Wire Wire Line
	5700 7800 5500 7800
Connection ~ 5500 7800
Wire Wire Line
	5500 7800 5500 7900
Wire Wire Line
	5700 7900 5500 7900
Connection ~ 5500 7900
Wire Wire Line
	5500 7900 5500 8250
Wire Wire Line
	8700 2700 8900 2700
Wire Wire Line
	8900 2700 8900 2800
Wire Wire Line
	8700 7900 8900 7900
Connection ~ 8900 7900
Wire Wire Line
	8900 7900 8900 8250
Wire Wire Line
	8700 7800 8900 7800
Connection ~ 8900 7800
Wire Wire Line
	8900 7800 8900 7900
Wire Wire Line
	8700 7700 8900 7700
Connection ~ 8900 7700
Wire Wire Line
	8900 7700 8900 7800
Wire Wire Line
	8700 7600 8900 7600
Connection ~ 8900 7600
Wire Wire Line
	8900 7600 8900 7700
Wire Wire Line
	8700 7500 8900 7500
Connection ~ 8900 7500
Wire Wire Line
	8900 7500 8900 7600
Wire Wire Line
	8700 6300 8900 6300
Connection ~ 8900 6300
Wire Wire Line
	8900 6300 8900 6400
Wire Wire Line
	8700 6400 8900 6400
Connection ~ 8900 6400
Wire Wire Line
	8900 6400 8900 6500
Wire Wire Line
	8700 6500 8900 6500
Connection ~ 8900 6500
Wire Wire Line
	8900 6500 8900 6600
Wire Wire Line
	8700 6600 8900 6600
Connection ~ 8900 6600
Wire Wire Line
	8900 6600 8900 6700
Wire Wire Line
	8700 6700 8900 6700
Connection ~ 8900 6700
Wire Wire Line
	8900 6700 8900 6800
Wire Wire Line
	8700 6800 8900 6800
Connection ~ 8900 6800
Wire Wire Line
	8900 6800 8900 6900
Wire Wire Line
	8700 6900 8900 6900
Connection ~ 8900 6900
Wire Wire Line
	8900 6900 8900 7000
Wire Wire Line
	8700 7000 8900 7000
Connection ~ 8900 7000
Wire Wire Line
	8900 7000 8900 7100
Wire Wire Line
	8700 7100 8900 7100
Connection ~ 8900 7100
Wire Wire Line
	8900 7100 8900 7200
Wire Wire Line
	8700 7200 8900 7200
Connection ~ 8900 7200
Wire Wire Line
	8900 7200 8900 7300
Wire Wire Line
	8700 7300 8900 7300
Connection ~ 8900 7300
Wire Wire Line
	8900 7300 8900 7400
Wire Wire Line
	8700 7400 8900 7400
Connection ~ 8900 7400
Wire Wire Line
	8900 7400 8900 7500
Wire Wire Line
	8700 6200 8900 6200
Connection ~ 8900 6200
Wire Wire Line
	8900 6200 8900 6300
Wire Wire Line
	8700 6100 8900 6100
Connection ~ 8900 6100
Wire Wire Line
	8900 6100 8900 6200
Wire Wire Line
	8700 6000 8900 6000
Connection ~ 8900 6000
Wire Wire Line
	8900 6000 8900 6100
Wire Wire Line
	8700 5900 8900 5900
Connection ~ 8900 5900
Wire Wire Line
	8900 5900 8900 6000
Wire Wire Line
	8700 5800 8900 5800
Connection ~ 8900 5800
Wire Wire Line
	8900 5800 8900 5900
Wire Wire Line
	8700 5700 8900 5700
Connection ~ 8900 5700
Wire Wire Line
	8900 5700 8900 5800
Wire Wire Line
	8700 5600 8900 5600
Connection ~ 8900 5600
Wire Wire Line
	8900 5600 8900 5700
Wire Wire Line
	8700 5500 8900 5500
Connection ~ 8900 5500
Wire Wire Line
	8900 5500 8900 5600
Wire Wire Line
	8700 5400 8900 5400
Connection ~ 8900 5400
Wire Wire Line
	8900 5400 8900 5500
Wire Wire Line
	8700 5300 8900 5300
Connection ~ 8900 5300
Wire Wire Line
	8900 5300 8900 5400
Wire Wire Line
	8700 5200 8900 5200
Connection ~ 8900 5200
Wire Wire Line
	8900 5200 8900 5300
Wire Wire Line
	8700 5100 8900 5100
Connection ~ 8900 5100
Wire Wire Line
	8900 5100 8900 5200
Wire Wire Line
	8700 5000 8900 5000
Connection ~ 8900 5000
Wire Wire Line
	8900 5000 8900 5100
Wire Wire Line
	8700 4900 8900 4900
Connection ~ 8900 4900
Wire Wire Line
	8900 4900 8900 5000
Wire Wire Line
	8700 4800 8900 4800
Connection ~ 8900 4800
Wire Wire Line
	8900 4800 8900 4900
Wire Wire Line
	8700 4700 8900 4700
Connection ~ 8900 4700
Wire Wire Line
	8900 4700 8900 4800
Wire Wire Line
	8700 4600 8900 4600
Connection ~ 8900 4600
Wire Wire Line
	8900 4600 8900 4700
Wire Wire Line
	8700 4500 8900 4500
Connection ~ 8900 4500
Wire Wire Line
	8900 4500 8900 4600
Wire Wire Line
	8700 4400 8900 4400
Connection ~ 8900 4400
Wire Wire Line
	8900 4400 8900 4500
Wire Wire Line
	8700 4300 8900 4300
Connection ~ 8900 4300
Wire Wire Line
	8900 4300 8900 4400
Wire Wire Line
	8700 4200 8900 4200
Connection ~ 8900 4200
Wire Wire Line
	8900 4200 8900 4300
Wire Wire Line
	8700 4100 8900 4100
Connection ~ 8900 4100
Wire Wire Line
	8900 4100 8900 4200
Wire Wire Line
	8700 4000 8900 4000
Connection ~ 8900 4000
Wire Wire Line
	8900 4000 8900 4100
Wire Wire Line
	8700 3900 8900 3900
Connection ~ 8900 3900
Wire Wire Line
	8900 3900 8900 4000
Wire Wire Line
	8700 3800 8900 3800
Connection ~ 8900 3800
Wire Wire Line
	8900 3800 8900 3900
Wire Wire Line
	8700 3700 8900 3700
Connection ~ 8900 3700
Wire Wire Line
	8900 3700 8900 3800
Wire Wire Line
	8700 3600 8900 3600
Connection ~ 8900 3600
Wire Wire Line
	8900 3600 8900 3700
Wire Wire Line
	8700 3500 8900 3500
Connection ~ 8900 3500
Wire Wire Line
	8900 3500 8900 3600
Wire Wire Line
	8700 3400 8900 3400
Connection ~ 8900 3400
Wire Wire Line
	8900 3400 8900 3500
Wire Wire Line
	8700 3300 8900 3300
Connection ~ 8900 3300
Wire Wire Line
	8900 3300 8900 3400
Wire Wire Line
	8700 3200 8900 3200
Connection ~ 8900 3200
Wire Wire Line
	8900 3200 8900 3300
Wire Wire Line
	8700 3100 8900 3100
Connection ~ 8900 3100
Wire Wire Line
	8900 3100 8900 3200
Wire Wire Line
	8700 3000 8900 3000
Connection ~ 8900 3000
Wire Wire Line
	8900 3000 8900 3100
Wire Wire Line
	8700 2900 8900 2900
Connection ~ 8900 2900
Wire Wire Line
	8900 2900 8900 3000
Wire Wire Line
	8700 2800 8900 2800
Connection ~ 8900 2800
Wire Wire Line
	8900 2800 8900 2900
Wire Wire Line
	5700 5200 5500 5200
Wire Wire Line
	5500 5200 5500 5300
Connection ~ 5500 5500
Wire Wire Line
	5700 5300 5500 5300
Connection ~ 5500 5300
Wire Wire Line
	5500 5300 5500 5500
Text GLabel 5700 2700 0    50   Input ~ 0
VDD_INTERFACE
Text GLabel 5700 2800 0    50   Output ~ 0
VDDA_3P3
$Comp
L Device:C C?
U 1 1 5DB90335
P 4500 3150
F 0 "C?" H 4615 3196 50  0000 L CNN
F 1 "1 uF" H 4615 3105 50  0000 L CNN
F 2 "" H 4538 3000 50  0001 C CNN
F 3 "~" H 4500 3150 50  0001 C CNN
	1    4500 3150
	1    0    0    -1  
$EndComp
$Comp
L power:GNDA #PWR?
U 1 1 5DB91777
P 4500 3400
F 0 "#PWR?" H 4500 3150 50  0001 C CNN
F 1 "GNDA" H 4505 3227 50  0000 C CNN
F 2 "" H 4500 3400 50  0001 C CNN
F 3 "" H 4500 3400 50  0001 C CNN
	1    4500 3400
	1    0    0    -1  
$EndComp
Wire Wire Line
	4500 2900 4500 3000
Wire Wire Line
	4500 2900 5450 2900
Wire Wire Line
	4500 3300 4500 3400
Wire Wire Line
	5700 3000 5500 3000
Wire Wire Line
	5500 3000 5500 2900
Connection ~ 5500 2900
Wire Wire Line
	5500 2900 5700 2900
Wire Wire Line
	5700 3100 5450 3100
Wire Wire Line
	5450 3100 5450 2900
Connection ~ 5450 2900
Wire Wire Line
	5450 2900 5500 2900
Text GLabel 5700 3200 0    50   Input ~ 0
VDDA1P3_AUX_SYNTH
Text GLabel 5700 3300 0    50   Input ~ 0
VDDS1P3_AUX_VCO_LDO
Text GLabel 5700 3400 0    50   Input ~ 0
VDDA1P3_BB
Text GLabel 5700 3500 0    50   Input ~ 0
VDDA1P3_CLOCK_SYNTH
Text GLabel 5700 3600 0    50   Input ~ 0
VDDA1P3_CLOCK_VCO_LDO
Text GLabel 5700 4600 0    50   Input ~ 0
VDDA1P3_SER
Text GLabel 5700 3700 0    50   Input ~ 0
VDDA1P3_SER
Text GLabel 5700 3800 0    50   Input ~ 0
VDDA1P3_DES
Text GLabel 5700 3900 0    50   Input ~ 0
VDDA1P3_RF_LO
$EndSCHEMATC
