EESchema Schematic File Version 4
EELAYER 30 0
EELAYER END
$Descr A3 16535 11693
encoding utf-8
Sheet 4 8
Title "AXSDR: COSMIC_RF"
Date "2019-08-15"
Rev "Mk. 1"
Comp "ASTREX Space Lab"
Comment1 "By Lync"
Comment2 ""
Comment3 ""
Comment4 "49394D 6554 576552 57495448 47546556495459 "
$EndDescr
Text GLabel 13850 1500 2    50   Input ~ 0
ORX1_IN+
Text GLabel 13850 2650 2    50   Input ~ 0
ORX1_IN-
$Comp
L Device:L L19
U 1 1 5D6718E1
P 12400 1500
F 0 "L19" V 12250 1500 50  0000 C CNN
F 1 "L" V 12350 1500 50  0000 C CNN
F 2 "" H 12400 1500 50  0001 C CNN
F 3 "~" H 12400 1500 50  0001 C CNN
	1    12400 1500
	0    1    1    0   
$EndComp
$Comp
L Device:R R11
U 1 1 5D671B94
P 13400 1500
F 0 "R11" V 13193 1500 50  0000 C CNN
F 1 "0" V 13284 1500 50  0000 C CNN
F 2 "" V 13330 1500 50  0001 C CNN
F 3 "~" H 13400 1500 50  0001 C CNN
	1    13400 1500
	0    1    1    0   
$EndComp
$Comp
L Device:R R12
U 1 1 5D67424D
P 13400 2650
F 0 "R12" V 13193 2650 50  0000 C CNN
F 1 "0" V 13284 2650 50  0000 C CNN
F 2 "" V 13330 2650 50  0001 C CNN
F 3 "~" H 13400 2650 50  0001 C CNN
	1    13400 2650
	0    1    1    0   
$EndComp
$Comp
L Device:L L13
U 1 1 5D67E8C4
P 11900 1500
F 0 "L13" V 11750 1500 50  0000 C CNN
F 1 "L" V 11850 1500 50  0000 C CNN
F 2 "" H 11900 1500 50  0001 C CNN
F 3 "~" H 11900 1500 50  0001 C CNN
	1    11900 1500
	0    1    1    0   
$EndComp
Wire Wire Line
	12050 1500 12250 1500
$Comp
L Device:C C8
U 1 1 5D67F18E
P 10900 1500
F 0 "C8" V 10648 1500 50  0000 C CNN
F 1 "18 PF" V 10739 1500 50  0000 C CNN
F 2 "" H 10938 1350 50  0001 C CNN
F 3 "~" H 10900 1500 50  0001 C CNN
	1    10900 1500
	0    1    1    0   
$EndComp
Wire Wire Line
	13850 1500 13550 1500
Wire Wire Line
	12550 1500 12700 1500
Wire Wire Line
	11050 1500 11750 1500
$Comp
L Device:R R9
U 1 1 5D684135
P 9900 1500
F 0 "R9" V 9693 1500 50  0000 C CNN
F 1 "0" V 9784 1500 50  0000 C CNN
F 2 "" V 9830 1500 50  0001 C CNN
F 3 "~" H 9900 1500 50  0001 C CNN
	1    9900 1500
	0    1    1    0   
$EndComp
Wire Wire Line
	10050 1500 10750 1500
Wire Wire Line
	9050 1500 9750 1500
$Comp
L dk_Coaxial-Connectors-RF:5-1814832-1 J3
U 1 1 5D691B15
P 8850 1500
F 0 "J3" H 8928 1747 60  0000 C CNN
F 1 "5-1814832-1" H 8928 1641 60  0000 C CNN
F 2 "digikey-footprints:RF_SMA_Vertical_5-1814832-1" H 9050 1700 60  0001 L CNN
F 3 "https://www.te.com/commerce/DocumentDelivery/DDEController?Action=srchrtrv&DocNm=1814832&DocType=Customer+Drawing&DocLang=English" H 9050 1800 60  0001 L CNN
F 4 "A97594-ND" H 9050 1900 60  0001 L CNN "Digi-Key_PN"
F 5 "5-1814832-1" H 9050 2000 60  0001 L CNN "MPN"
F 6 "Connectors, Interconnects" H 9050 2100 60  0001 L CNN "Category"
F 7 "Coaxial Connectors (RF)" H 9050 2200 60  0001 L CNN "Family"
F 8 "https://www.te.com/commerce/DocumentDelivery/DDEController?Action=srchrtrv&DocNm=1814832&DocType=Customer+Drawing&DocLang=English" H 9050 2300 60  0001 L CNN "DK_Datasheet_Link"
F 9 "/product-detail/en/te-connectivity-amp-connectors/5-1814832-1/A97594-ND/1755982" H 9050 2400 60  0001 L CNN "DK_Detail_Page"
F 10 "CONN SMA JACK STR 50 OHM PCB" H 9050 2500 60  0001 L CNN "Description"
F 11 "TE Connectivity AMP Connectors" H 9050 2600 60  0001 L CNN "Manufacturer"
F 12 "Active" H 9050 2700 60  0001 L CNN "Status"
	1    8850 1500
	1    0    0    -1  
$EndComp
$Comp
L power:GNDA #PWR07
U 1 1 5D69A1FB
P 8850 1850
F 0 "#PWR07" H 8850 1600 50  0001 C CNN
F 1 "GNDA" H 8855 1677 50  0000 C CNN
F 2 "" H 8850 1850 50  0001 C CNN
F 3 "" H 8850 1850 50  0001 C CNN
	1    8850 1850
	1    0    0    -1  
$EndComp
Wire Wire Line
	8850 1850 8850 1700
Wire Wire Line
	13550 2650 13850 2650
$Comp
L Device:L L20
U 1 1 5D6A3858
P 12400 1800
F 0 "L20" V 12590 1800 50  0000 C CNN
F 1 "L" V 12499 1800 50  0000 C CNN
F 2 "" H 12400 1800 50  0001 C CNN
F 3 "~" H 12400 1800 50  0001 C CNN
	1    12400 1800
	0    -1   -1   0   
$EndComp
$Comp
L Device:L L14
U 1 1 5D6A6EBB
P 11900 1800
F 0 "L14" V 12090 1800 50  0000 C CNN
F 1 "L" V 11999 1800 50  0000 C CNN
F 2 "" H 11900 1800 50  0001 C CNN
F 3 "~" H 11900 1800 50  0001 C CNN
	1    11900 1800
	0    -1   -1   0   
$EndComp
Wire Wire Line
	12250 1800 12050 1800
Wire Wire Line
	12850 2650 13250 2650
Wire Wire Line
	12550 1800 12850 1800
Wire Wire Line
	12700 2100 12550 2100
Wire Wire Line
	12700 1500 12700 2100
Connection ~ 12700 1500
Wire Wire Line
	12700 1500 13250 1500
$Comp
L Device:L L21
U 1 1 5D6A9F59
P 12400 2100
F 0 "L21" V 12219 2100 50  0000 C CNN
F 1 "L" V 12310 2100 50  0000 C CNN
F 2 "" H 12400 2100 50  0001 C CNN
F 3 "~" H 12400 2100 50  0001 C CNN
	1    12400 2100
	0    1    1    0   
$EndComp
$Comp
L Device:L L15
U 1 1 5D6AAB2C
P 11900 2100
F 0 "L15" V 11719 2100 50  0000 C CNN
F 1 "L" V 11810 2100 50  0000 C CNN
F 2 "" H 11900 2100 50  0001 C CNN
F 3 "~" H 11900 2100 50  0001 C CNN
	1    11900 2100
	0    1    1    0   
$EndComp
Wire Wire Line
	12250 2100 12050 2100
Wire Wire Line
	11750 1800 11550 1800
Wire Wire Line
	11750 2100 11550 2100
Wire Wire Line
	11550 2100 11550 1800
Connection ~ 11550 1800
Wire Wire Line
	11550 1800 11050 1800
Wire Wire Line
	11050 3000 11550 3000
Wire Wire Line
	12050 3000 12050 2300
Wire Wire Line
	12050 2300 11800 2300
Wire Wire Line
	11800 2300 11800 2400
Wire Wire Line
	11050 1800 11050 2400
NoConn ~ 11800 2400
$Comp
L power:GNDA #PWR09
U 1 1 5D6AEC82
P 11550 3000
F 0 "#PWR09" H 11550 2750 50  0001 C CNN
F 1 "GNDA" H 11555 2827 50  0000 C CNN
F 2 "" H 11550 3000 50  0001 C CNN
F 3 "" H 11550 3000 50  0001 C CNN
	1    11550 3000
	1    0    0    -1  
$EndComp
Connection ~ 11550 3000
Wire Wire Line
	11550 3000 12050 3000
$Comp
L Device:C C10
U 1 1 5D6AF1F4
P 11550 2650
F 0 "C10" H 11665 2696 50  0000 L CNN
F 1 "27 PF" H 11665 2605 50  0000 L CNN
F 2 "" H 11588 2500 50  0001 C CNN
F 3 "~" H 11550 2650 50  0001 C CNN
	1    11550 2650
	1    0    0    -1  
$EndComp
Wire Wire Line
	11550 2400 11050 2400
Wire Wire Line
	11550 2800 11550 3000
Text Label 10250 1500 0    50   ~ 0
ORX1_UNBAL
Connection ~ 11050 2400
Wire Wire Line
	11050 2400 11050 3000
Wire Wire Line
	11550 2400 11550 2500
Wire Wire Line
	12850 1800 12850 2650
Text Notes 8950 1050 0    124  ~ 0
ORX1
Text Label 12850 2650 0    49   ~ 0
ORX1_BAL-
Text Label 12850 1500 0    49   ~ 0
ORX1_BAL+
Text GLabel 13850 6600 2    50   Input ~ 0
ORX2_IN+
Text GLabel 13850 7750 2    50   Input ~ 0
ORX2_IN-
$Comp
L Device:L L22
U 1 1 5D6E6307
P 12400 6600
F 0 "L22" V 12250 6600 50  0000 C CNN
F 1 "L" V 12350 6600 50  0000 C CNN
F 2 "" H 12400 6600 50  0001 C CNN
F 3 "~" H 12400 6600 50  0001 C CNN
	1    12400 6600
	0    1    1    0   
$EndComp
$Comp
L Device:R R13
U 1 1 5D6E630D
P 13400 6600
F 0 "R13" V 13193 6600 50  0000 C CNN
F 1 "0" V 13284 6600 50  0000 C CNN
F 2 "" V 13330 6600 50  0001 C CNN
F 3 "~" H 13400 6600 50  0001 C CNN
	1    13400 6600
	0    1    1    0   
$EndComp
$Comp
L Device:R R14
U 1 1 5D6E6313
P 13400 7750
F 0 "R14" V 13193 7750 50  0000 C CNN
F 1 "0" V 13284 7750 50  0000 C CNN
F 2 "" V 13330 7750 50  0001 C CNN
F 3 "~" H 13400 7750 50  0001 C CNN
	1    13400 7750
	0    1    1    0   
$EndComp
$Comp
L Device:L L16
U 1 1 5D6E6319
P 11900 6600
F 0 "L16" V 11750 6600 50  0000 C CNN
F 1 "L" V 11850 6600 50  0000 C CNN
F 2 "" H 11900 6600 50  0001 C CNN
F 3 "~" H 11900 6600 50  0001 C CNN
	1    11900 6600
	0    1    1    0   
$EndComp
Wire Wire Line
	12050 6600 12250 6600
$Comp
L Device:C C9
U 1 1 5D6E6320
P 10900 6600
F 0 "C9" V 10648 6600 50  0000 C CNN
F 1 "18 PF" V 10739 6600 50  0000 C CNN
F 2 "" H 10938 6450 50  0001 C CNN
F 3 "~" H 10900 6600 50  0001 C CNN
	1    10900 6600
	0    1    1    0   
$EndComp
Wire Wire Line
	13850 6600 13550 6600
Wire Wire Line
	12550 6600 12700 6600
Wire Wire Line
	11050 6600 11750 6600
$Comp
L Device:R R10
U 1 1 5D6E6329
P 9900 6600
F 0 "R10" V 9693 6600 50  0000 C CNN
F 1 "0" V 9784 6600 50  0000 C CNN
F 2 "" V 9830 6600 50  0001 C CNN
F 3 "~" H 9900 6600 50  0001 C CNN
	1    9900 6600
	0    1    1    0   
$EndComp
Wire Wire Line
	10050 6600 10750 6600
Wire Wire Line
	9050 6600 9750 6600
$Comp
L dk_Coaxial-Connectors-RF:5-1814832-1 J4
U 1 1 5D6E633A
P 8850 6600
F 0 "J4" H 8928 6847 60  0000 C CNN
F 1 "5-1814832-1" H 8928 6741 60  0000 C CNN
F 2 "digikey-footprints:RF_SMA_Vertical_5-1814832-1" H 9050 6800 60  0001 L CNN
F 3 "https://www.te.com/commerce/DocumentDelivery/DDEController?Action=srchrtrv&DocNm=1814832&DocType=Customer+Drawing&DocLang=English" H 9050 6900 60  0001 L CNN
F 4 "A97594-ND" H 9050 7000 60  0001 L CNN "Digi-Key_PN"
F 5 "5-1814832-1" H 9050 7100 60  0001 L CNN "MPN"
F 6 "Connectors, Interconnects" H 9050 7200 60  0001 L CNN "Category"
F 7 "Coaxial Connectors (RF)" H 9050 7300 60  0001 L CNN "Family"
F 8 "https://www.te.com/commerce/DocumentDelivery/DDEController?Action=srchrtrv&DocNm=1814832&DocType=Customer+Drawing&DocLang=English" H 9050 7400 60  0001 L CNN "DK_Datasheet_Link"
F 9 "/product-detail/en/te-connectivity-amp-connectors/5-1814832-1/A97594-ND/1755982" H 9050 7500 60  0001 L CNN "DK_Detail_Page"
F 10 "CONN SMA JACK STR 50 OHM PCB" H 9050 7600 60  0001 L CNN "Description"
F 11 "TE Connectivity AMP Connectors" H 9050 7700 60  0001 L CNN "Manufacturer"
F 12 "Active" H 9050 7800 60  0001 L CNN "Status"
	1    8850 6600
	1    0    0    -1  
$EndComp
$Comp
L power:GNDA #PWR08
U 1 1 5D6E6340
P 8850 6950
F 0 "#PWR08" H 8850 6700 50  0001 C CNN
F 1 "GNDA" H 8855 6777 50  0000 C CNN
F 2 "" H 8850 6950 50  0001 C CNN
F 3 "" H 8850 6950 50  0001 C CNN
	1    8850 6950
	1    0    0    -1  
$EndComp
Wire Wire Line
	8850 6950 8850 6800
Wire Wire Line
	13550 7750 13850 7750
$Comp
L Device:L L23
U 1 1 5D6E6348
P 12400 6900
F 0 "L23" V 12590 6900 50  0000 C CNN
F 1 "L" V 12499 6900 50  0000 C CNN
F 2 "" H 12400 6900 50  0001 C CNN
F 3 "~" H 12400 6900 50  0001 C CNN
	1    12400 6900
	0    -1   -1   0   
$EndComp
$Comp
L Device:L L17
U 1 1 5D6E634E
P 11900 6900
F 0 "L17" V 12090 6900 50  0000 C CNN
F 1 "L" V 11999 6900 50  0000 C CNN
F 2 "" H 11900 6900 50  0001 C CNN
F 3 "~" H 11900 6900 50  0001 C CNN
	1    11900 6900
	0    -1   -1   0   
$EndComp
Wire Wire Line
	12250 6900 12050 6900
Wire Wire Line
	12850 7750 13250 7750
Wire Wire Line
	12550 6900 12850 6900
Wire Wire Line
	12700 7200 12550 7200
Wire Wire Line
	12700 6600 12700 7200
Connection ~ 12700 6600
Wire Wire Line
	12700 6600 13250 6600
$Comp
L Device:L L24
U 1 1 5D6E635B
P 12400 7200
F 0 "L24" V 12219 7200 50  0000 C CNN
F 1 "L" V 12310 7200 50  0000 C CNN
F 2 "" H 12400 7200 50  0001 C CNN
F 3 "~" H 12400 7200 50  0001 C CNN
	1    12400 7200
	0    1    1    0   
$EndComp
$Comp
L Device:L L18
U 1 1 5D6E6361
P 11900 7200
F 0 "L18" V 11719 7200 50  0000 C CNN
F 1 "L" V 11810 7200 50  0000 C CNN
F 2 "" H 11900 7200 50  0001 C CNN
F 3 "~" H 11900 7200 50  0001 C CNN
	1    11900 7200
	0    1    1    0   
$EndComp
Wire Wire Line
	12250 7200 12050 7200
Wire Wire Line
	11750 6900 11550 6900
Wire Wire Line
	11750 7200 11550 7200
Wire Wire Line
	11550 7200 11550 6900
Connection ~ 11550 6900
Wire Wire Line
	11550 6900 11050 6900
Wire Wire Line
	11050 8100 11550 8100
Wire Wire Line
	12050 8100 12050 7400
Wire Wire Line
	12050 7400 11800 7400
Wire Wire Line
	11800 7400 11800 7500
Wire Wire Line
	11050 6900 11050 7500
NoConn ~ 11800 7500
$Comp
L power:GNDA #PWR010
U 1 1 5D6E6373
P 11550 8100
F 0 "#PWR010" H 11550 7850 50  0001 C CNN
F 1 "GNDA" H 11555 7927 50  0000 C CNN
F 2 "" H 11550 8100 50  0001 C CNN
F 3 "" H 11550 8100 50  0001 C CNN
	1    11550 8100
	1    0    0    -1  
$EndComp
Connection ~ 11550 8100
Wire Wire Line
	11550 8100 12050 8100
$Comp
L Device:C C11
U 1 1 5D6E637B
P 11550 7750
F 0 "C11" H 11665 7796 50  0000 L CNN
F 1 "27 PF" H 11665 7705 50  0000 L CNN
F 2 "" H 11588 7600 50  0001 C CNN
F 3 "~" H 11550 7750 50  0001 C CNN
	1    11550 7750
	1    0    0    -1  
$EndComp
Wire Wire Line
	11550 7500 11050 7500
Wire Wire Line
	11550 7900 11550 8100
Text Label 10250 6600 0    50   ~ 0
ORX2_UNBAL
Connection ~ 11050 7500
Wire Wire Line
	11050 7500 11050 8100
Wire Wire Line
	11550 7500 11550 7600
Wire Wire Line
	12850 6900 12850 7750
Text Label 12850 7750 0    49   ~ 0
ORX2_BAL-
Text Label 12850 6600 0    49   ~ 0
ORX2_BAL+
Text Notes 8950 6200 0    124  ~ 0
ORX2\n
Text GLabel 6850 1550 2    50   Input ~ 0
RX1_IN+
Text GLabel 6850 2700 2    50   Input ~ 0
RX1_IN-
$Comp
L Device:L L7
U 1 1 5D724F6F
P 5400 1550
F 0 "L7" V 5250 1550 50  0000 C CNN
F 1 "L" V 5350 1550 50  0000 C CNN
F 2 "" H 5400 1550 50  0001 C CNN
F 3 "~" H 5400 1550 50  0001 C CNN
	1    5400 1550
	0    1    1    0   
$EndComp
$Comp
L Device:R R5
U 1 1 5D724F75
P 6400 1550
F 0 "R5" V 6193 1550 50  0000 C CNN
F 1 "0" V 6284 1550 50  0000 C CNN
F 2 "" V 6330 1550 50  0001 C CNN
F 3 "~" H 6400 1550 50  0001 C CNN
	1    6400 1550
	0    1    1    0   
$EndComp
$Comp
L Device:R R6
U 1 1 5D724F7B
P 6400 2700
F 0 "R6" V 6193 2700 50  0000 C CNN
F 1 "0" V 6284 2700 50  0000 C CNN
F 2 "" V 6330 2700 50  0001 C CNN
F 3 "~" H 6400 2700 50  0001 C CNN
	1    6400 2700
	0    1    1    0   
$EndComp
$Comp
L Device:L L1
U 1 1 5D724F81
P 4900 1550
F 0 "L1" V 4750 1550 50  0000 C CNN
F 1 "L" V 4850 1550 50  0000 C CNN
F 2 "" H 4900 1550 50  0001 C CNN
F 3 "~" H 4900 1550 50  0001 C CNN
	1    4900 1550
	0    1    1    0   
$EndComp
Wire Wire Line
	5050 1550 5250 1550
$Comp
L Device:C C4
U 1 1 5D724F88
P 3900 1550
F 0 "C4" V 3648 1550 50  0000 C CNN
F 1 "18 PF" V 3739 1550 50  0000 C CNN
F 2 "" H 3938 1400 50  0001 C CNN
F 3 "~" H 3900 1550 50  0001 C CNN
	1    3900 1550
	0    1    1    0   
$EndComp
Wire Wire Line
	6850 1550 6550 1550
Wire Wire Line
	5550 1550 5700 1550
Wire Wire Line
	4050 1550 4750 1550
$Comp
L Device:R R3
U 1 1 5D724F91
P 2900 1550
F 0 "R3" V 2693 1550 50  0000 C CNN
F 1 "0" V 2784 1550 50  0000 C CNN
F 2 "" V 2830 1550 50  0001 C CNN
F 3 "~" H 2900 1550 50  0001 C CNN
	1    2900 1550
	0    1    1    0   
$EndComp
Wire Wire Line
	3050 1550 3750 1550
Wire Wire Line
	2050 1550 2750 1550
$Comp
L power:GNDA #PWR02
U 1 1 5D724FA8
P 1850 1900
F 0 "#PWR02" H 1850 1650 50  0001 C CNN
F 1 "GNDA" H 1855 1727 50  0000 C CNN
F 2 "" H 1850 1900 50  0001 C CNN
F 3 "" H 1850 1900 50  0001 C CNN
	1    1850 1900
	1    0    0    -1  
$EndComp
Wire Wire Line
	1850 1900 1850 1750
Wire Wire Line
	6550 2700 6850 2700
$Comp
L Device:L L8
U 1 1 5D724FB0
P 5400 1850
F 0 "L8" V 5590 1850 50  0000 C CNN
F 1 "L" V 5499 1850 50  0000 C CNN
F 2 "" H 5400 1850 50  0001 C CNN
F 3 "~" H 5400 1850 50  0001 C CNN
	1    5400 1850
	0    -1   -1   0   
$EndComp
$Comp
L Device:L L2
U 1 1 5D724FB6
P 4900 1850
F 0 "L2" V 5090 1850 50  0000 C CNN
F 1 "L" V 4999 1850 50  0000 C CNN
F 2 "" H 4900 1850 50  0001 C CNN
F 3 "~" H 4900 1850 50  0001 C CNN
	1    4900 1850
	0    -1   -1   0   
$EndComp
Wire Wire Line
	5250 1850 5050 1850
Wire Wire Line
	5850 2700 6250 2700
Wire Wire Line
	5550 1850 5850 1850
Wire Wire Line
	5700 2150 5550 2150
Wire Wire Line
	5700 1550 5700 2150
Connection ~ 5700 1550
Wire Wire Line
	5700 1550 6250 1550
$Comp
L Device:L L9
U 1 1 5D724FC3
P 5400 2150
F 0 "L9" V 5219 2150 50  0000 C CNN
F 1 "L" V 5310 2150 50  0000 C CNN
F 2 "" H 5400 2150 50  0001 C CNN
F 3 "~" H 5400 2150 50  0001 C CNN
	1    5400 2150
	0    1    1    0   
$EndComp
$Comp
L Device:L L3
U 1 1 5D724FC9
P 4900 2150
F 0 "L3" V 4719 2150 50  0000 C CNN
F 1 "L" V 4810 2150 50  0000 C CNN
F 2 "" H 4900 2150 50  0001 C CNN
F 3 "~" H 4900 2150 50  0001 C CNN
	1    4900 2150
	0    1    1    0   
$EndComp
Wire Wire Line
	5250 2150 5050 2150
Wire Wire Line
	4750 1850 4550 1850
Wire Wire Line
	4750 2150 4550 2150
Wire Wire Line
	4550 2150 4550 1850
Connection ~ 4550 1850
Wire Wire Line
	4550 1850 4050 1850
Wire Wire Line
	4050 3050 4550 3050
Wire Wire Line
	5050 3050 5050 2350
Wire Wire Line
	5050 2350 4800 2350
Wire Wire Line
	4800 2350 4800 2450
Wire Wire Line
	4050 1850 4050 2450
NoConn ~ 4800 2450
$Comp
L power:GNDA #PWR05
U 1 1 5D724FDB
P 4550 3050
F 0 "#PWR05" H 4550 2800 50  0001 C CNN
F 1 "GNDA" H 4555 2877 50  0000 C CNN
F 2 "" H 4550 3050 50  0001 C CNN
F 3 "" H 4550 3050 50  0001 C CNN
	1    4550 3050
	1    0    0    -1  
$EndComp
Connection ~ 4550 3050
Wire Wire Line
	4550 3050 5050 3050
$Comp
L Device:C C6
U 1 1 5D724FE3
P 4550 2700
F 0 "C6" H 4665 2746 50  0000 L CNN
F 1 "27 PF" H 4665 2655 50  0000 L CNN
F 2 "" H 4588 2550 50  0001 C CNN
F 3 "~" H 4550 2700 50  0001 C CNN
	1    4550 2700
	1    0    0    -1  
$EndComp
Wire Wire Line
	4550 2450 4050 2450
Wire Wire Line
	4550 2850 4550 3050
Text Label 3250 1550 0    50   ~ 0
RX1_UNBAL
Connection ~ 4050 2450
Wire Wire Line
	4050 2450 4050 3050
Wire Wire Line
	4550 2450 4550 2550
Wire Wire Line
	5850 1850 5850 2700
Text Label 5850 2700 0    49   ~ 0
RX1_BAL-
Text Label 5850 1550 0    49   ~ 0
RX1_BAL+
Text GLabel 6850 6700 2    50   Input ~ 0
RX2_IN+
Text GLabel 6850 7850 2    50   Input ~ 0
RX2_IN-
$Comp
L Device:L L10
U 1 1 5D731F4D
P 5400 6700
F 0 "L10" V 5250 6700 50  0000 C CNN
F 1 "L" V 5350 6700 50  0000 C CNN
F 2 "" H 5400 6700 50  0001 C CNN
F 3 "~" H 5400 6700 50  0001 C CNN
	1    5400 6700
	0    1    1    0   
$EndComp
$Comp
L Device:R R7
U 1 1 5D731F53
P 6400 6700
F 0 "R7" V 6193 6700 50  0000 C CNN
F 1 "0" V 6284 6700 50  0000 C CNN
F 2 "" V 6330 6700 50  0001 C CNN
F 3 "~" H 6400 6700 50  0001 C CNN
	1    6400 6700
	0    1    1    0   
$EndComp
$Comp
L Device:R R8
U 1 1 5D731F59
P 6400 7850
F 0 "R8" V 6193 7850 50  0000 C CNN
F 1 "0" V 6284 7850 50  0000 C CNN
F 2 "" V 6330 7850 50  0001 C CNN
F 3 "~" H 6400 7850 50  0001 C CNN
	1    6400 7850
	0    1    1    0   
$EndComp
$Comp
L Device:L L4
U 1 1 5D731F5F
P 4900 6700
F 0 "L4" V 4750 6700 50  0000 C CNN
F 1 "L" V 4850 6700 50  0000 C CNN
F 2 "" H 4900 6700 50  0001 C CNN
F 3 "~" H 4900 6700 50  0001 C CNN
	1    4900 6700
	0    1    1    0   
$EndComp
Wire Wire Line
	5050 6700 5250 6700
$Comp
L Device:C C5
U 1 1 5D731F66
P 3900 6700
F 0 "C5" V 3648 6700 50  0000 C CNN
F 1 "18 PF" V 3739 6700 50  0000 C CNN
F 2 "" H 3938 6550 50  0001 C CNN
F 3 "~" H 3900 6700 50  0001 C CNN
	1    3900 6700
	0    1    1    0   
$EndComp
Wire Wire Line
	6850 6700 6550 6700
Wire Wire Line
	5550 6700 5700 6700
Wire Wire Line
	4050 6700 4750 6700
$Comp
L Device:R R4
U 1 1 5D731F6F
P 2900 6700
F 0 "R4" V 2693 6700 50  0000 C CNN
F 1 "0" V 2784 6700 50  0000 C CNN
F 2 "" V 2830 6700 50  0001 C CNN
F 3 "~" H 2900 6700 50  0001 C CNN
	1    2900 6700
	0    1    1    0   
$EndComp
Wire Wire Line
	3050 6700 3750 6700
Wire Wire Line
	2050 6700 2750 6700
$Comp
L power:GNDA #PWR03
U 1 1 5D731F86
P 1850 7050
F 0 "#PWR03" H 1850 6800 50  0001 C CNN
F 1 "GNDA" H 1855 6877 50  0000 C CNN
F 2 "" H 1850 7050 50  0001 C CNN
F 3 "" H 1850 7050 50  0001 C CNN
	1    1850 7050
	1    0    0    -1  
$EndComp
Wire Wire Line
	1850 7050 1850 6900
Wire Wire Line
	6550 7850 6850 7850
$Comp
L Device:L L11
U 1 1 5D731F8E
P 5400 7000
F 0 "L11" V 5590 7000 50  0000 C CNN
F 1 "L" V 5499 7000 50  0000 C CNN
F 2 "" H 5400 7000 50  0001 C CNN
F 3 "~" H 5400 7000 50  0001 C CNN
	1    5400 7000
	0    -1   -1   0   
$EndComp
$Comp
L Device:L L5
U 1 1 5D731F94
P 4900 7000
F 0 "L5" V 5090 7000 50  0000 C CNN
F 1 "L" V 4999 7000 50  0000 C CNN
F 2 "" H 4900 7000 50  0001 C CNN
F 3 "~" H 4900 7000 50  0001 C CNN
	1    4900 7000
	0    -1   -1   0   
$EndComp
Wire Wire Line
	5250 7000 5050 7000
Wire Wire Line
	5850 7850 6250 7850
Wire Wire Line
	5550 7000 5850 7000
Wire Wire Line
	5700 7300 5550 7300
Wire Wire Line
	5700 6700 5700 7300
Connection ~ 5700 6700
Wire Wire Line
	5700 6700 6250 6700
$Comp
L Device:L L12
U 1 1 5D731FA1
P 5400 7300
F 0 "L12" V 5219 7300 50  0000 C CNN
F 1 "L" V 5310 7300 50  0000 C CNN
F 2 "" H 5400 7300 50  0001 C CNN
F 3 "~" H 5400 7300 50  0001 C CNN
	1    5400 7300
	0    1    1    0   
$EndComp
$Comp
L Device:L L6
U 1 1 5D731FA7
P 4900 7300
F 0 "L6" V 4719 7300 50  0000 C CNN
F 1 "L" V 4810 7300 50  0000 C CNN
F 2 "" H 4900 7300 50  0001 C CNN
F 3 "~" H 4900 7300 50  0001 C CNN
	1    4900 7300
	0    1    1    0   
$EndComp
Wire Wire Line
	5250 7300 5050 7300
Wire Wire Line
	4750 7000 4550 7000
Wire Wire Line
	4750 7300 4550 7300
Wire Wire Line
	4550 7300 4550 7000
Connection ~ 4550 7000
Wire Wire Line
	4550 7000 4050 7000
Wire Wire Line
	4050 8200 4550 8200
Wire Wire Line
	5050 8200 5050 7500
Wire Wire Line
	5050 7500 4800 7500
Wire Wire Line
	4800 7500 4800 7600
Wire Wire Line
	4050 7000 4050 7600
NoConn ~ 4800 7600
$Comp
L power:GNDA #PWR06
U 1 1 5D731FB9
P 4550 8200
F 0 "#PWR06" H 4550 7950 50  0001 C CNN
F 1 "GNDA" H 4555 8027 50  0000 C CNN
F 2 "" H 4550 8200 50  0001 C CNN
F 3 "" H 4550 8200 50  0001 C CNN
	1    4550 8200
	1    0    0    -1  
$EndComp
Connection ~ 4550 8200
Wire Wire Line
	4550 8200 5050 8200
$Comp
L Device:C C7
U 1 1 5D731FC1
P 4550 7850
F 0 "C7" H 4665 7896 50  0000 L CNN
F 1 "27 PF" H 4665 7805 50  0000 L CNN
F 2 "" H 4588 7700 50  0001 C CNN
F 3 "~" H 4550 7850 50  0001 C CNN
	1    4550 7850
	1    0    0    -1  
$EndComp
Wire Wire Line
	4550 7600 4050 7600
Wire Wire Line
	4550 8000 4550 8200
Text Label 3250 6700 0    50   ~ 0
RX2_UNBAL
Connection ~ 4050 7600
Wire Wire Line
	4050 7600 4050 8200
Wire Wire Line
	4550 7600 4550 7700
Wire Wire Line
	5850 7000 5850 7850
Text Label 5850 7850 0    49   ~ 0
RX2_BAL-
Text Label 5850 6700 0    49   ~ 0
RX2_BAL+
$Comp
L dk_Coaxial-Connectors-RF:5-1814400-1 J2
U 1 1 5D737CBD
P 1850 6700
F 0 "J2" H 1928 6925 50  0000 C CNN
F 1 "5-1814400-1" H 1928 6834 50  0000 C CNN
F 2 "digikey-footprints:RF_SMA_RightAngle_5-1814400-1" H 2050 6900 60  0001 L CNN
F 3 "https://www.te.com/commerce/DocumentDelivery/DDEController?Action=srchrtrv&DocNm=1814400&DocType=Customer+Drawing&DocLang=English" H 2050 7000 60  0001 L CNN
F 4 "A97593-ND" H 2050 7100 60  0001 L CNN "Digi-Key_PN"
F 5 "5-1814400-1" H 2050 7200 60  0001 L CNN "MPN"
F 6 "Connectors, Interconnects" H 2050 7300 60  0001 L CNN "Category"
F 7 "Coaxial Connectors (RF)" H 2050 7400 60  0001 L CNN "Family"
F 8 "https://www.te.com/commerce/DocumentDelivery/DDEController?Action=srchrtrv&DocNm=1814400&DocType=Customer+Drawing&DocLang=English" H 2050 7500 60  0001 L CNN "DK_Datasheet_Link"
F 9 "/product-detail/en/te-connectivity-amp-connectors/5-1814400-1/A97593-ND/1755981" H 2050 7600 60  0001 L CNN "DK_Detail_Page"
F 10 "CONN SMA JACK R/A 50 OHM PCB" H 2050 7700 60  0001 L CNN "Description"
F 11 "TE Connectivity AMP Connectors" H 2050 7800 60  0001 L CNN "Manufacturer"
F 12 "Active" H 2050 7900 60  0001 L CNN "Status"
	1    1850 6700
	1    0    0    -1  
$EndComp
$Comp
L dk_Coaxial-Connectors-RF:5-1814400-1 J1
U 1 1 5D73E3ED
P 1850 1550
F 0 "J1" H 1928 1775 50  0000 C CNN
F 1 "5-1814400-1" H 1928 1684 50  0000 C CNN
F 2 "digikey-footprints:RF_SMA_RightAngle_5-1814400-1" H 2050 1750 60  0001 L CNN
F 3 "https://www.te.com/commerce/DocumentDelivery/DDEController?Action=srchrtrv&DocNm=1814400&DocType=Customer+Drawing&DocLang=English" H 2050 1850 60  0001 L CNN
F 4 "A97593-ND" H 2050 1950 60  0001 L CNN "Digi-Key_PN"
F 5 "5-1814400-1" H 2050 2050 60  0001 L CNN "MPN"
F 6 "Connectors, Interconnects" H 2050 2150 60  0001 L CNN "Category"
F 7 "Coaxial Connectors (RF)" H 2050 2250 60  0001 L CNN "Family"
F 8 "https://www.te.com/commerce/DocumentDelivery/DDEController?Action=srchrtrv&DocNm=1814400&DocType=Customer+Drawing&DocLang=English" H 2050 2350 60  0001 L CNN "DK_Datasheet_Link"
F 9 "/product-detail/en/te-connectivity-amp-connectors/5-1814400-1/A97593-ND/1755981" H 2050 2450 60  0001 L CNN "DK_Detail_Page"
F 10 "CONN SMA JACK R/A 50 OHM PCB" H 2050 2550 60  0001 L CNN "Description"
F 11 "TE Connectivity AMP Connectors" H 2050 2650 60  0001 L CNN "Manufacturer"
F 12 "Active" H 2050 2750 60  0001 L CNN "Status"
	1    1850 1550
	1    0    0    -1  
$EndComp
Text Notes 1800 1150 0    124  ~ 0
RX1
Text Notes 1900 6100 0    124  ~ 0
RX2
$EndSCHEMATC
