EESchema Schematic File Version 4
EELAYER 30 0
EELAYER END
$Descr A3 16535 11693
encoding utf-8
Sheet 6 8
Title "AXSDR: COSMIC_RF"
Date "2019-08-15"
Rev "Mk. 1"
Comp "ASTREX Space Lab"
Comment1 "By Lync"
Comment2 ""
Comment3 ""
Comment4 "49394D 6554 576552 57495448 47546556495459 "
$EndDescr
Text GLabel 7100 1300 0    49   Input ~ 0
VDDA1P8_TX
Text GLabel 7100 2400 0    49   Input ~ 0
TX1_OUT+
Text GLabel 7100 3000 0    49   Input ~ 0
TX1_OUT-
Text GLabel 7100 4100 0    49   Input ~ 0
VDDA1P8_TX
$Comp
L Device:C C12
U 1 1 5D79D25B
P 8250 1300
F 0 "C12" V 7998 1300 50  0000 C CNN
F 1 "C" V 8089 1300 50  0000 C CNN
F 2 "" H 8288 1150 50  0001 C CNN
F 3 "~" H 8250 1300 50  0001 C CNN
	1    8250 1300
	0    1    1    0   
$EndComp
$Comp
L Device:C C13
U 1 1 5D79D57F
P 8250 4100
F 0 "C13" V 7998 4100 50  0000 C CNN
F 1 "C" V 8089 4100 50  0000 C CNN
F 2 "" H 8288 3950 50  0001 C CNN
F 3 "~" H 8250 4100 50  0001 C CNN
	1    8250 4100
	0    1    1    0   
$EndComp
$Comp
L power:GNDA #PWR011
U 1 1 5D79D8C2
P 8600 1500
F 0 "#PWR011" H 8600 1250 50  0001 C CNN
F 1 "GNDA" H 8605 1327 50  0000 C CNN
F 2 "" H 8600 1500 50  0001 C CNN
F 3 "" H 8600 1500 50  0001 C CNN
	1    8600 1500
	1    0    0    -1  
$EndComp
$Comp
L power:GNDA #PWR012
U 1 1 5D79DDAB
P 8600 4300
F 0 "#PWR012" H 8600 4050 50  0001 C CNN
F 1 "GNDA" H 8605 4127 50  0000 C CNN
F 2 "" H 8600 4300 50  0001 C CNN
F 3 "" H 8600 4300 50  0001 C CNN
	1    8600 4300
	1    0    0    -1  
$EndComp
Wire Wire Line
	8100 1300 7250 1300
Wire Wire Line
	8400 1300 8600 1300
Wire Wire Line
	8600 1300 8600 1500
Wire Wire Line
	7100 4100 7250 4100
Wire Wire Line
	8400 4100 8600 4100
Wire Wire Line
	8600 4100 8600 4300
$Comp
L Device:R R15
U 1 1 5D79EAB8
P 8050 2400
F 0 "R15" V 7843 2400 50  0000 C CNN
F 1 "R" V 7934 2400 50  0000 C CNN
F 2 "" V 7980 2400 50  0001 C CNN
F 3 "~" H 8050 2400 50  0001 C CNN
	1    8050 2400
	0    1    1    0   
$EndComp
$Comp
L Device:R R16
U 1 1 5D79EDB3
P 8050 3000
F 0 "R16" V 7843 3000 50  0000 C CNN
F 1 "R" V 7934 3000 50  0000 C CNN
F 2 "" V 7980 3000 50  0001 C CNN
F 3 "~" H 8050 3000 50  0001 C CNN
	1    8050 3000
	0    1    1    0   
$EndComp
Wire Wire Line
	7100 2400 7250 2400
Wire Wire Line
	7100 3000 7250 3000
Wire Wire Line
	8200 3000 9100 3000
Wire Wire Line
	9100 3000 9100 2800
Wire Wire Line
	8200 2400 9100 2400
Wire Wire Line
	9100 2400 9100 2600
Text Label 8400 2400 0    49   ~ 0
TX1_BAL+
Text Label 8400 3000 0    49   ~ 0
TX1_BAL-
$Comp
L Device:L L25
U 1 1 5D7A21A0
P 7250 1850
F 0 "L25" H 7302 1896 50  0000 L CNN
F 1 "43NF" H 7302 1805 50  0000 L CNN
F 2 "" H 7250 1850 50  0001 C CNN
F 3 "~" H 7250 1850 50  0001 C CNN
	1    7250 1850
	1    0    0    -1  
$EndComp
$Comp
L Device:L L26
U 1 1 5D7A2D09
P 7250 3550
F 0 "L26" H 7302 3596 50  0000 L CNN
F 1 "43NF" H 7302 3505 50  0000 L CNN
F 2 "" H 7250 3550 50  0001 C CNN
F 3 "~" H 7250 3550 50  0001 C CNN
	1    7250 3550
	1    0    0    -1  
$EndComp
Wire Wire Line
	7250 3700 7250 4100
Connection ~ 7250 4100
Wire Wire Line
	7250 4100 8100 4100
Wire Wire Line
	7250 3400 7250 3000
Connection ~ 7250 3000
Wire Wire Line
	7250 3000 7900 3000
Wire Wire Line
	7250 1700 7250 1300
Connection ~ 7250 1300
Wire Wire Line
	7250 1300 7100 1300
Wire Wire Line
	7250 2000 7250 2400
Connection ~ 7250 2400
Wire Wire Line
	7250 2400 7900 2400
$Comp
L Device:L L29
U 1 1 5D7AAD33
P 9850 2600
F 0 "L29" V 9760 2600 50  0000 C CNN
F 1 "L" V 9949 2600 50  0001 C CNN
F 2 "" H 9850 2600 50  0001 C CNN
F 3 "~" H 9850 2600 50  0001 C CNN
	1    9850 2600
	0    1    1    0   
$EndComp
$Comp
L Device:L L35
U 1 1 5D7AB8FB
P 10350 2600
F 0 "L35" V 10260 2600 50  0000 C CNN
F 1 "L" V 10260 2600 50  0001 C CNN
F 2 "" H 10350 2600 50  0001 C CNN
F 3 "~" H 10350 2600 50  0001 C CNN
	1    10350 2600
	0    1    1    0   
$EndComp
Wire Wire Line
	9100 2600 9600 2600
Wire Wire Line
	10000 2600 10200 2600
$Comp
L Device:L L30
U 1 1 5D7AD606
P 9850 2800
F 0 "L30" V 9949 2800 50  0000 C CNN
F 1 "L" V 9949 2800 50  0001 C CNN
F 2 "" H 9850 2800 50  0001 C CNN
F 3 "~" H 9850 2800 50  0001 C CNN
	1    9850 2800
	0    -1   -1   0   
$EndComp
$Comp
L Device:L L37
U 1 1 5D7ADEB8
P 10400 2800
F 0 "L37" V 10499 2800 50  0000 C CNN
F 1 "L" V 10310 2800 50  0001 C CNN
F 2 "" H 10400 2800 50  0001 C CNN
F 3 "~" H 10400 2800 50  0001 C CNN
	1    10400 2800
	0    -1   -1   0   
$EndComp
$Comp
L Device:L L31
U 1 1 5D7AE205
P 9850 3200
F 0 "L31" V 9760 3200 50  0000 C CNN
F 1 "L" V 9949 3200 50  0001 C CNN
F 2 "" H 9850 3200 50  0001 C CNN
F 3 "~" H 9850 3200 50  0001 C CNN
	1    9850 3200
	0    1    1    0   
$EndComp
$Comp
L Device:L L38
U 1 1 5D7AE4AC
P 10400 3200
F 0 "L38" V 10310 3200 50  0000 C CNN
F 1 "L" V 10499 3200 50  0001 C CNN
F 2 "" H 10400 3200 50  0001 C CNN
F 3 "~" H 10400 3200 50  0001 C CNN
	1    10400 3200
	0    1    1    0   
$EndComp
$Comp
L Device:C C24
U 1 1 5D7B1115
P 11250 2600
F 0 "C24" V 10998 2600 50  0000 C CNN
F 1 "18 PF" V 11089 2600 50  0000 C CNN
F 2 "" H 11288 2450 50  0001 C CNN
F 3 "~" H 11250 2600 50  0001 C CNN
	1    11250 2600
	0    1    1    0   
$EndComp
Wire Wire Line
	10500 2600 11100 2600
$Comp
L Device:R R19
U 1 1 5D7B1EC1
P 12050 2600
F 0 "R19" V 12257 2600 50  0000 C CNN
F 1 "0" V 12166 2600 50  0000 C CNN
F 2 "" V 11980 2600 50  0001 C CNN
F 3 "~" H 12050 2600 50  0001 C CNN
	1    12050 2600
	0    -1   -1   0   
$EndComp
Wire Wire Line
	11400 2600 11900 2600
$Comp
L Connector:Conn_Coaxial J5
U 1 1 5D7B2B57
P 12950 2600
F 0 "J5" H 13050 2575 50  0000 L CNN
F 1 "Conn_Coaxial" H 13050 2484 50  0000 L CNN
F 2 "" H 12950 2600 50  0001 C CNN
F 3 " ~" H 12950 2600 50  0001 C CNN
	1    12950 2600
	1    0    0    -1  
$EndComp
Wire Wire Line
	12200 2600 12750 2600
$Comp
L power:GNDA #PWR017
U 1 1 5D7B342F
P 12950 2950
F 0 "#PWR017" H 12950 2700 50  0001 C CNN
F 1 "GNDA" H 12955 2777 50  0000 C CNN
F 2 "" H 12950 2950 50  0001 C CNN
F 3 "" H 12950 2950 50  0001 C CNN
	1    12950 2950
	1    0    0    -1  
$EndComp
Wire Wire Line
	12950 2950 12950 2800
Wire Wire Line
	9100 2800 9700 2800
Wire Wire Line
	10000 2800 10250 2800
Wire Wire Line
	10550 2800 10650 2800
$Comp
L power:GNDA #PWR015
U 1 1 5D7B8D80
P 10050 5150
F 0 "#PWR015" H 10050 4900 50  0001 C CNN
F 1 "GNDA" H 10055 4977 50  0000 C CNN
F 2 "" H 10050 5150 50  0001 C CNN
F 3 "" H 10050 5150 50  0001 C CNN
	1    10050 5150
	1    0    0    -1  
$EndComp
$Comp
L Device:C C19
U 1 1 5D7B91C7
P 10400 5150
F 0 "C19" V 10148 5150 50  0000 C CNN
F 1 "27PF" V 10239 5150 50  0000 C CNN
F 2 "" H 10438 5000 50  0001 C CNN
F 3 "~" H 10400 5150 50  0001 C CNN
	1    10400 5150
	0    1    1    0   
$EndComp
$Comp
L Device:C C18
U 1 1 5D7C0E15
P 10400 4700
F 0 "C18" V 10148 4700 50  0000 C CNN
F 1 "10PF" V 10239 4700 50  0000 C CNN
F 2 "" H 10438 4550 50  0001 C CNN
F 3 "~" H 10400 4700 50  0001 C CNN
	1    10400 4700
	0    1    1    0   
$EndComp
$Comp
L Device:C C17
U 1 1 5D7C1193
P 10400 4250
F 0 "C17" V 10148 4250 50  0000 C CNN
F 1 "75PF" V 10239 4250 50  0000 C CNN
F 2 "" H 10438 4100 50  0001 C CNN
F 3 "~" H 10400 4250 50  0001 C CNN
	1    10400 4250
	0    1    1    0   
$EndComp
$Comp
L Device:C C16
U 1 1 5D7C9D65
P 10400 3800
F 0 "C16" V 10148 3800 50  0000 C CNN
F 1 "51PF" V 10239 3800 50  0000 C CNN
F 2 "" H 10438 3650 50  0001 C CNN
F 3 "~" H 10400 3800 50  0001 C CNN
	1    10400 3800
	0    1    1    0   
$EndComp
NoConn ~ 10150 3600
Wire Wire Line
	10050 3550 10150 3550
Wire Wire Line
	10150 3550 10150 3600
Wire Wire Line
	10750 2800 10750 3800
Wire Wire Line
	10050 5150 10050 4700
Wire Wire Line
	10550 5150 10750 5150
Wire Wire Line
	10250 5150 10050 5150
Connection ~ 10050 5150
Wire Wire Line
	10250 4700 10050 4700
Connection ~ 10050 4700
Wire Wire Line
	10050 4700 10050 4250
Wire Wire Line
	10550 4700 10750 4700
Connection ~ 10750 4700
Wire Wire Line
	10750 4700 10750 5150
Wire Wire Line
	10550 4250 10750 4250
Connection ~ 10750 4250
Wire Wire Line
	10750 4250 10750 4700
Wire Wire Line
	10250 4250 10050 4250
Connection ~ 10050 4250
Wire Wire Line
	10050 4250 10050 3800
Wire Wire Line
	10250 3800 10050 3800
Connection ~ 10050 3800
Wire Wire Line
	10050 3800 10050 3550
Wire Wire Line
	10550 3800 10750 3800
Connection ~ 10750 3800
Wire Wire Line
	10750 3800 10750 4250
Wire Wire Line
	10000 3200 10250 3200
Wire Wire Line
	10550 3200 10650 3200
Wire Wire Line
	10650 3200 10650 2800
Connection ~ 10650 2800
Wire Wire Line
	10650 2800 10750 2800
Wire Wire Line
	9700 3200 9600 3200
Wire Wire Line
	9600 3200 9600 2600
Connection ~ 9600 2600
Wire Wire Line
	9600 2600 9700 2600
Text Label 10750 2600 0    49   ~ 0
RFO_1
Text GLabel 7100 5600 0    49   Input ~ 0
VDDA1P8_TX
Text GLabel 7100 6700 0    49   Input ~ 0
TX2_OUT+
Text GLabel 7100 7300 0    49   Input ~ 0
TX2_OUT-
Text GLabel 7100 8400 0    49   Input ~ 0
VDDA1P8_TX
$Comp
L Device:C C14
U 1 1 5D8063AF
P 8250 5600
F 0 "C14" V 7998 5600 50  0000 C CNN
F 1 "C" V 8089 5600 50  0000 C CNN
F 2 "" H 8288 5450 50  0001 C CNN
F 3 "~" H 8250 5600 50  0001 C CNN
	1    8250 5600
	0    1    1    0   
$EndComp
$Comp
L Device:C C15
U 1 1 5D8063B5
P 8250 8400
F 0 "C15" V 7998 8400 50  0000 C CNN
F 1 "C" V 8089 8400 50  0000 C CNN
F 2 "" H 8288 8250 50  0001 C CNN
F 3 "~" H 8250 8400 50  0001 C CNN
	1    8250 8400
	0    1    1    0   
$EndComp
$Comp
L power:GNDA #PWR013
U 1 1 5D8063BB
P 8600 5800
F 0 "#PWR013" H 8600 5550 50  0001 C CNN
F 1 "GNDA" H 8605 5627 50  0000 C CNN
F 2 "" H 8600 5800 50  0001 C CNN
F 3 "" H 8600 5800 50  0001 C CNN
	1    8600 5800
	1    0    0    -1  
$EndComp
$Comp
L power:GNDA #PWR014
U 1 1 5D8063C1
P 8600 8600
F 0 "#PWR014" H 8600 8350 50  0001 C CNN
F 1 "GNDA" H 8605 8427 50  0000 C CNN
F 2 "" H 8600 8600 50  0001 C CNN
F 3 "" H 8600 8600 50  0001 C CNN
	1    8600 8600
	1    0    0    -1  
$EndComp
Wire Wire Line
	8100 5600 7250 5600
Wire Wire Line
	8400 5600 8600 5600
Wire Wire Line
	8600 5600 8600 5800
Wire Wire Line
	7100 8400 7250 8400
Wire Wire Line
	8400 8400 8600 8400
Wire Wire Line
	8600 8400 8600 8600
$Comp
L Device:R R17
U 1 1 5D8063CD
P 8050 6700
F 0 "R17" V 7843 6700 50  0000 C CNN
F 1 "R" V 7934 6700 50  0000 C CNN
F 2 "" V 7980 6700 50  0001 C CNN
F 3 "~" H 8050 6700 50  0001 C CNN
	1    8050 6700
	0    1    1    0   
$EndComp
$Comp
L Device:R R18
U 1 1 5D8063D3
P 8050 7300
F 0 "R18" V 7843 7300 50  0000 C CNN
F 1 "R" V 7934 7300 50  0000 C CNN
F 2 "" V 7980 7300 50  0001 C CNN
F 3 "~" H 8050 7300 50  0001 C CNN
	1    8050 7300
	0    1    1    0   
$EndComp
Wire Wire Line
	7100 6700 7250 6700
Wire Wire Line
	7100 7300 7250 7300
Wire Wire Line
	8200 7300 9100 7300
Wire Wire Line
	9100 7300 9100 7100
Wire Wire Line
	8200 6700 9100 6700
Wire Wire Line
	9100 6700 9100 6900
Text Label 8400 6700 0    49   ~ 0
TX1_BAL+
Text Label 8400 7300 0    49   ~ 0
TX1_BAL-
$Comp
L Device:L L27
U 1 1 5D8063E1
P 7250 6150
F 0 "L27" H 7302 6196 50  0000 L CNN
F 1 "43NF" H 7302 6105 50  0000 L CNN
F 2 "" H 7250 6150 50  0001 C CNN
F 3 "~" H 7250 6150 50  0001 C CNN
	1    7250 6150
	1    0    0    -1  
$EndComp
$Comp
L Device:L L28
U 1 1 5D8063E7
P 7250 7850
F 0 "L28" H 7302 7896 50  0000 L CNN
F 1 "43NF" H 7302 7805 50  0000 L CNN
F 2 "" H 7250 7850 50  0001 C CNN
F 3 "~" H 7250 7850 50  0001 C CNN
	1    7250 7850
	1    0    0    -1  
$EndComp
Wire Wire Line
	7250 8000 7250 8400
Connection ~ 7250 8400
Wire Wire Line
	7250 8400 8100 8400
Wire Wire Line
	7250 7700 7250 7300
Connection ~ 7250 7300
Wire Wire Line
	7250 7300 7900 7300
Wire Wire Line
	7250 6000 7250 5600
Connection ~ 7250 5600
Wire Wire Line
	7250 5600 7100 5600
Wire Wire Line
	7250 6300 7250 6700
Connection ~ 7250 6700
Wire Wire Line
	7250 6700 7900 6700
$Comp
L Device:L L32
U 1 1 5D8063F9
P 9850 6900
F 0 "L32" V 9760 6900 50  0000 C CNN
F 1 "L" V 9949 6900 50  0001 C CNN
F 2 "" H 9850 6900 50  0001 C CNN
F 3 "~" H 9850 6900 50  0001 C CNN
	1    9850 6900
	0    1    1    0   
$EndComp
$Comp
L Device:L L36
U 1 1 5D8063FF
P 10350 6900
F 0 "L36" V 10260 6900 50  0000 C CNN
F 1 "L" V 10260 6900 50  0001 C CNN
F 2 "" H 10350 6900 50  0001 C CNN
F 3 "~" H 10350 6900 50  0001 C CNN
	1    10350 6900
	0    1    1    0   
$EndComp
Wire Wire Line
	9100 6900 9600 6900
Wire Wire Line
	10000 6900 10200 6900
$Comp
L Device:L L33
U 1 1 5D806407
P 9850 7100
F 0 "L33" V 9949 7100 50  0000 C CNN
F 1 "L" V 9949 7100 50  0001 C CNN
F 2 "" H 9850 7100 50  0001 C CNN
F 3 "~" H 9850 7100 50  0001 C CNN
	1    9850 7100
	0    -1   -1   0   
$EndComp
$Comp
L Device:L L39
U 1 1 5D80640D
P 10400 7100
F 0 "L39" V 10499 7100 50  0000 C CNN
F 1 "L" V 10310 7100 50  0001 C CNN
F 2 "" H 10400 7100 50  0001 C CNN
F 3 "~" H 10400 7100 50  0001 C CNN
	1    10400 7100
	0    -1   -1   0   
$EndComp
$Comp
L Device:L L34
U 1 1 5D806413
P 9850 7500
F 0 "L34" V 9760 7500 50  0000 C CNN
F 1 "L" V 9949 7500 50  0001 C CNN
F 2 "" H 9850 7500 50  0001 C CNN
F 3 "~" H 9850 7500 50  0001 C CNN
	1    9850 7500
	0    1    1    0   
$EndComp
$Comp
L Device:L L40
U 1 1 5D806419
P 10400 7500
F 0 "L40" V 10310 7500 50  0000 C CNN
F 1 "L" V 10499 7500 50  0001 C CNN
F 2 "" H 10400 7500 50  0001 C CNN
F 3 "~" H 10400 7500 50  0001 C CNN
	1    10400 7500
	0    1    1    0   
$EndComp
$Comp
L Device:C C25
U 1 1 5D80641F
P 11250 6900
F 0 "C25" V 10998 6900 50  0000 C CNN
F 1 "18 PF" V 11089 6900 50  0000 C CNN
F 2 "" H 11288 6750 50  0001 C CNN
F 3 "~" H 11250 6900 50  0001 C CNN
	1    11250 6900
	0    1    1    0   
$EndComp
Wire Wire Line
	10500 6900 11100 6900
$Comp
L Device:R R20
U 1 1 5D806426
P 12050 6900
F 0 "R20" V 12257 6900 50  0000 C CNN
F 1 "0" V 12166 6900 50  0000 C CNN
F 2 "" V 11980 6900 50  0001 C CNN
F 3 "~" H 12050 6900 50  0001 C CNN
	1    12050 6900
	0    -1   -1   0   
$EndComp
Wire Wire Line
	11400 6900 11900 6900
$Comp
L Connector:Conn_Coaxial J6
U 1 1 5D80642D
P 12950 6900
F 0 "J6" H 13050 6875 50  0000 L CNN
F 1 "Conn_Coaxial" H 13050 6784 50  0000 L CNN
F 2 "" H 12950 6900 50  0001 C CNN
F 3 " ~" H 12950 6900 50  0001 C CNN
	1    12950 6900
	1    0    0    -1  
$EndComp
Wire Wire Line
	12200 6900 12750 6900
$Comp
L power:GNDA #PWR018
U 1 1 5D806434
P 12950 7250
F 0 "#PWR018" H 12950 7000 50  0001 C CNN
F 1 "GNDA" H 12955 7077 50  0000 C CNN
F 2 "" H 12950 7250 50  0001 C CNN
F 3 "" H 12950 7250 50  0001 C CNN
	1    12950 7250
	1    0    0    -1  
$EndComp
Wire Wire Line
	12950 7250 12950 7100
Wire Wire Line
	9100 7100 9700 7100
Wire Wire Line
	10000 7100 10250 7100
Wire Wire Line
	10550 7100 10650 7100
$Comp
L power:GNDA #PWR016
U 1 1 5D80643E
P 10050 9450
F 0 "#PWR016" H 10050 9200 50  0001 C CNN
F 1 "GNDA" H 10055 9277 50  0000 C CNN
F 2 "" H 10050 9450 50  0001 C CNN
F 3 "" H 10050 9450 50  0001 C CNN
	1    10050 9450
	1    0    0    -1  
$EndComp
$Comp
L Device:C C23
U 1 1 5D806444
P 10400 9450
F 0 "C23" V 10148 9450 50  0000 C CNN
F 1 "27PF" V 10239 9450 50  0000 C CNN
F 2 "" H 10438 9300 50  0001 C CNN
F 3 "~" H 10400 9450 50  0001 C CNN
	1    10400 9450
	0    1    1    0   
$EndComp
$Comp
L Device:C C22
U 1 1 5D80644A
P 10400 9000
F 0 "C22" V 10148 9000 50  0000 C CNN
F 1 "10PF" V 10239 9000 50  0000 C CNN
F 2 "" H 10438 8850 50  0001 C CNN
F 3 "~" H 10400 9000 50  0001 C CNN
	1    10400 9000
	0    1    1    0   
$EndComp
$Comp
L Device:C C21
U 1 1 5D806450
P 10400 8550
F 0 "C21" V 10148 8550 50  0000 C CNN
F 1 "75PF" V 10239 8550 50  0000 C CNN
F 2 "" H 10438 8400 50  0001 C CNN
F 3 "~" H 10400 8550 50  0001 C CNN
	1    10400 8550
	0    1    1    0   
$EndComp
$Comp
L Device:C C20
U 1 1 5D806456
P 10400 8100
F 0 "C20" V 10148 8100 50  0000 C CNN
F 1 "51PF" V 10239 8100 50  0000 C CNN
F 2 "" H 10438 7950 50  0001 C CNN
F 3 "~" H 10400 8100 50  0001 C CNN
	1    10400 8100
	0    1    1    0   
$EndComp
NoConn ~ 10150 7900
Wire Wire Line
	10050 7850 10150 7850
Wire Wire Line
	10150 7850 10150 7900
Wire Wire Line
	10750 7100 10750 8100
Wire Wire Line
	10050 9450 10050 9000
Wire Wire Line
	10550 9450 10750 9450
Wire Wire Line
	10250 9450 10050 9450
Connection ~ 10050 9450
Wire Wire Line
	10250 9000 10050 9000
Connection ~ 10050 9000
Wire Wire Line
	10050 9000 10050 8550
Wire Wire Line
	10550 9000 10750 9000
Connection ~ 10750 9000
Wire Wire Line
	10750 9000 10750 9450
Wire Wire Line
	10550 8550 10750 8550
Connection ~ 10750 8550
Wire Wire Line
	10750 8550 10750 9000
Wire Wire Line
	10250 8550 10050 8550
Connection ~ 10050 8550
Wire Wire Line
	10050 8550 10050 8100
Wire Wire Line
	10250 8100 10050 8100
Connection ~ 10050 8100
Wire Wire Line
	10050 8100 10050 7850
Wire Wire Line
	10550 8100 10750 8100
Connection ~ 10750 8100
Wire Wire Line
	10750 8100 10750 8550
Wire Wire Line
	10000 7500 10250 7500
Wire Wire Line
	10550 7500 10650 7500
Wire Wire Line
	10650 7500 10650 7100
Connection ~ 10650 7100
Wire Wire Line
	10650 7100 10750 7100
Wire Wire Line
	9700 7500 9600 7500
Wire Wire Line
	9600 7500 9600 6900
Connection ~ 9600 6900
Wire Wire Line
	9600 6900 9700 6900
Text Label 10750 6900 0    49   ~ 0
RFO_2
$EndSCHEMATC
